Logiciel & Hardware/FFT_piezo_Test/Nain/Chapeau2/F0001MTH.CSV

Record Length,1.024000e+03,,          0.00000, -65.78970,
Sample Interval,4.932134e+01,,         49.32134, -61.38970,
Trigger Point,0.000000000000e+00,,         98.64268, -66.58970,
,,,        147.96402, -82.18970,
,,,        197.28535, -91.38970,
,,,        246.60669, -92.18970,
Source,MATH,,        295.92803, -89.38970,
Vertical Units,dB,,        345.24937,-105.78970,
Vertical Scale,1.000000e+01,,        394.57071, -91.38970,
Vertical Offset,0.000000e+00,,        443.89205, -90.58970,
Horizontal Units,Hz,,        493.21338,-100.58970,
Horizontal Scale,5.050505e+03,,        542.53472,-102.98970,
Pt Fmt,Y,,        591.85606,-101.78970,
Yzero,-6.698970e+01,,        641.17740, -93.78970,
Probe Atten,1.000000e+00,,        690.49874, -96.98970,
Model Number,TDS2012B,,        739.82008, -88.98970,
Serial Number,C103583,,        789.14141, -92.58970,
Firmware Version,FV:v22.11,,        838.46275, -93.78970,
,,,887.78409, -96.98970,
,,,937.10543,-100.58970,
,,,986.42677, -96.98970,
,,,1035.74811, -94.98970,
,,,1085.06945,-106.98970,
,,,1134.39079, -96.98970,
,,,1183.71213,-105.78970,
,,,1233.03347, -90.58970,
,,,1282.35481, -87.38970,
,,,1331.67615, -93.78970,
,,,1380.99749, -95.38970,
,,,1430.31883, -97.38970,
,,,1479.64017, -93.78970,
,,,1528.96151, -93.78970,
,,,1578.28285,-103.38970,
,,,1627.60419, -93.78970,
,,,1676.92553, -88.18970,
,,,1726.24687, -90.18970,
,,,1775.56821, -94.18970,
,,,1824.88955, -96.98970,
,,,1874.21089, -89.78970,
,,,1923.53223, -86.98970,
,,,1972.85357, -88.18970,
,,,2022.17491, -94.18970,
,,,2071.49625,-100.58970,
,,,2120.81759,-106.98970,
,,,2170.13893, -98.98970,
,,,2219.46027, -92.98970,
,,,2268.78161, -93.78970,
,,,2318.10295,-105.78970,
,,,2367.42429, -98.98970,
,,,2416.74563,-102.98970,
,,,2466.06697, -96.98970,
,,,2515.38831,-106.98970,
,,,2564.70965, -99.78970,
,,,2614.03099,-106.98970,
,,,2663.35233, -96.98970,
,,,2712.67367, -92.58970,
,,,2761.99501, -92.58970,
,,,2811.31635, -91.38970,
,,,2860.63769, -98.98970,
,,,2909.95903, -98.98970,
,,,2959.28037, -97.38970,
,,,3008.60171,-105.78970,
,,,3057.92305,-100.98970,
,,,3107.24439, -97.38970,
,,,3156.56573, -98.98970,
,,,3205.88707, -92.98970,
,,,3255.20841, -93.78970,
,,,3304.52975, -98.18970,
,,,3353.85109,-100.58970,
,,,3403.17243,-106.98970,
,,,3452.49377, -95.38970,
,,,3501.81511, -98.98970,
,,,3551.13645, -97.38970,
,,,3600.45779, -94.18970,
,,,3649.77913, -92.18970,
,,,3699.10047, -95.78970,
,,,3748.42181,-100.58970,
,,,3797.74315,-101.78970,
,,,3847.06449,-103.78970,
,,,3896.38583,-105.78970,
,,,3945.70717, -94.98970,
,,,3995.02851, -94.18970,
,,,4044.34985,-100.58970,
,,,4093.67119,-106.98970,
,,,4142.99253,-101.78970,
,,,4192.31387,-101.78970,
,,,4241.63521, -98.98970,
,,,4290.95655,-103.78970,
,,,4340.27789, -91.78970,
,,,4389.59923, -89.38970,
,,,4438.92057, -92.58970,
,,,4488.24191,-106.98970,
,,,4537.56325,-103.38970,
,,,4586.88459,-105.78970,
,,,4636.20593, -95.78970,
,,,4685.52727, -95.38970,
,,,4734.84861, -94.58970,
,,,4784.16995, -93.78970,
,,,4833.49129, -96.58970,
,,,4882.81263,-102.98970,
,,,4932.13397, -93.38970,
,,,4981.45531, -92.18970,
,,,5030.77665,-101.78970,
,,,5080.09799,-102.98970,
,,,5129.41933, -92.98970,
,,,5178.74067, -90.58970,
,,,5228.06201, -94.98970,
,,,5277.38335,-102.98970,
,,,5326.70469, -96.18970,
,,,5376.02603, -96.98970,
,,,5425.34737, -98.18970,
,,,5474.66871,-106.98970,
,,,5523.99005,-105.78970,
,,,5573.31139,-101.78970,
,,,5622.63273,-102.98970,
,,,5671.95407, -99.78970,
,,,5721.27541, -97.38970,
,,,5770.59675, -90.58970,
,,,5819.91809, -95.38970,
,,,5869.23943, -93.78970,
,,,5918.56077, -94.98970,
,,,5967.88211,-106.98970,
,,,6017.20345, -97.78970,
,,,6066.52479,-102.98970,
,,,6115.84613, -94.18970,
,,,6165.16747, -92.58970,
,,,6214.48881, -95.38970,
,,,6263.81015, -92.98970,
,,,6313.13149,-106.98970,
,,,6362.45283, -98.18970,
,,,6411.77417, -95.78970,
,,,6461.09551,-100.98970,
,,,6510.41685, -94.98970,
,,,6559.73819, -92.98970,
,,,6609.05953, -95.78970,
,,,6658.38087, -97.78970,
,,,6707.70221,-101.78970,
,,,6757.02355, -96.98970,
,,,6806.34489,-106.98970,
,,,6855.66623,-106.98970,
,,,6904.98757, -89.38970,
,,,6954.30891, -86.18970,
,,,7003.63025, -89.38970,
,,,7052.95159,-105.78970,
,,,7102.27293, -98.98970,
,,,7151.59427, -97.78970,
,,,7200.91561, -98.98970,
,,,7250.23695, -94.98970,
,,,7299.55829, -97.78970,
,,,7348.87963, -93.38970,
,,,7398.20097, -98.98970,
,,,7447.52231, -94.58970,
,,,7496.84365, -93.78970,
,,,7546.16499, -97.78970,
,,,7595.48633, -98.98970,
,,,7644.80767,-102.98970,
,,,7694.12901, -98.98970,
,,,7743.45035, -93.78970,
,,,7792.77169, -95.78970,
,,,7842.09303,-100.58970,
,,,7891.41437, -95.78970,
,,,7940.73571, -99.78970,
,,,7990.05705,-101.78970,
,,,8039.37839,-101.78970,
,,,8088.69973, -99.78970,
,,,8138.02107, -97.38970,
,,,8187.34241, -96.98970,
,,,8236.66375, -94.58970,
,,,8285.98509,-102.98970,
,,,8335.30643, -95.38970,
,,,8384.62777, -95.78970,
,,,8433.94911,-106.98970,
,,,8483.27045, -98.18970,
,,,8532.59179,-106.98970,
,,,8581.91313, -98.98970,
,,,8631.23447, -98.18970,
,,,8680.55581,-101.78970,
,,,8729.87715,-100.98970,
,,,8779.19849, -98.98970,
,,,8828.51983, -91.78970,
,,,8877.84117, -92.98970,
,,,8927.16251, -94.98970,
,,,8976.48385, -97.78970,
,,,9025.80519, -97.38970,
,,,9075.12653, -93.78970,
,,,9124.44787,-100.58970,
,,,9173.76921, -96.98970,
,,,9223.09055, -95.78970,
,,,9272.41189, -98.98970,
,,,9321.73323, -96.98970,
,,,9371.05457,-100.98970,
,,,9420.37591, -91.78970,
,,,9469.69725, -97.78970,
,,,9519.01859, -93.78970,
,,,9568.33993, -90.18970,
,,,9617.66127, -94.18970,
,,,9666.98261, -94.98970,
,,,9716.30395, -91.38970,
,,,9765.62529, -91.38970,
,,,9814.94663, -94.98970,
,,,9864.26797, -91.78970,
,,,9913.58931, -92.58970,
,,,9962.91065,-100.58970,
,,,10012.23199, -93.78970,
,,,10061.55333, -92.58970,
,,,10110.87467, -89.78970,
,,,10160.19601, -90.18970,
,,,10209.51735,-103.78970,
,,,10258.83869, -98.18970,
,,,10308.16003, -98.98970,
,,,10357.48137, -94.98970,
,,,10406.80271,-100.58970,
,,,10456.12405, -98.98970,
,,,10505.44539,-100.58970,
,,,10554.76673, -92.98970,
,,,10604.08807, -89.38970,
,,,10653.40941, -89.78970,
,,,10702.73075,-106.98970,
,,,10752.05209, -93.78970,
,,,10801.37343,-106.98970,
,,,10850.69477, -94.58970,
,,,10900.01611, -96.98970,
,,,10949.33745, -97.38970,
,,,10998.65879,-102.98970,
,,,11047.98013, -96.98970,
,,,11097.30147,-100.58970,
,,,11146.62281, -93.78970,
,,,11195.94415, -94.98970,
,,,11245.26549,-101.78970,
,,,11294.58683,-105.78970,
,,,11343.90817, -96.98970,
,,,11393.22951, -96.58970,
,,,11442.55085, -92.98970,
,,,11491.87219, -94.18970,
,,,11541.19353,-101.78970,
,,,11590.51487,-100.58970,
,,,11639.83621, -93.38970,
,,,11689.15755, -89.78970,
,,,11738.47889, -88.58970,
,,,11787.80023, -90.58970,
,,,11837.12157,-102.98970,
,,,11886.44291, -98.98970,
,,,11935.76425,-106.98970,
,,,11985.08559,-102.98970,
,,,12034.40693, -99.78970,
,,,12083.72827, -93.38970,
,,,12133.04961, -92.18970,
,,,12182.37095, -95.38970,
,,,12231.69229,-100.98970,
,,,12281.01363, -92.98970,
,,,12330.33497, -92.98970,
,,,12379.65631, -95.78970,
,,,12428.97765,-105.78970,
,,,12478.29899, -98.98970,
,,,12527.62033,-100.98970,
,,,12576.94167, -98.18970,
,,,12626.26301, -91.38970,
,,,12675.58435,-100.58970,
,,,12724.90569, -94.18970,
,,,12774.22703, -96.98970,
,,,12823.54837, -92.18970,
,,,12872.86971, -98.18970,
,,,12922.19105,-106.98970,
,,,12971.51239,-106.98970,
,,,13020.83373,-106.98970,
,,,13070.15507,-101.78970,
,,,13119.47641,-103.78970,
,,,13168.79775,-106.98970,
,,,13218.11909,-106.98970,
,,,13267.44043,-100.58970,
,,,13316.76177, -95.78970,
,,,13366.08311, -92.58970,
,,,13415.40445, -93.78970,
,,,13464.72579, -95.78970,
,,,13514.04713, -98.98970,
,,,13563.36847,-101.78970,
,,,13612.68981, -93.38970,
,,,13662.01115, -92.18970,
,,,13711.33249, -94.98970,
,,,13760.65383, -94.98970,
,,,13809.97517, -93.78970,
,,,13859.29651, -96.58970,
,,,13908.61785, -95.38970,
,,,13957.93919, -96.98970,
,,,14007.26053,-102.98970,
,,,14056.58187, -95.78970,
,,,14105.90321, -93.78970,
,,,14155.22455, -92.58970,
,,,14204.54589, -93.78970,
,,,14253.86723, -94.98970,
,,,14303.18857, -98.98970,
,,,14352.50991, -99.78970,
,,,14401.83125, -96.18970,
,,,14451.15259, -94.18970,
,,,14500.47393, -90.18970,
,,,14549.79527, -88.18970,
,,,14599.11661, -88.18970,
,,,14648.43795, -89.78970,
,,,14697.75929, -95.78970,
,,,14747.08063,-106.98970,
,,,14796.40197,-106.98970,
,,,14845.72331,-106.98970,
,,,14895.04465,-103.78970,
,,,14944.36599,-100.98970,
,,,14993.68733, -98.98970,
,,,15043.00867,-106.98970,
,,,15092.33001,-106.98970,
,,,15141.65135, -96.98970,
,,,15190.97269, -93.78970,
,,,15240.29403,-105.78970,
,,,15289.61537, -95.78970,
,,,15338.93671, -92.98970,
,,,15388.25805, -98.18970,
,,,15437.57939, -94.58970,
,,,15486.90073, -93.78970,
,,,15536.22207, -88.18970,
,,,15585.54341, -88.98970,
,,,15634.86475, -96.98970,
,,,15684.18609, -93.78970,
,,,15733.50743, -94.98970,
,,,15782.82877,-106.98970,
,,,15832.15011, -95.78970,
,,,15881.47145,-100.58970,
,,,15930.79279,-106.98970,
,,,15980.11413, -98.18970,
,,,16029.43547, -92.98970,
,,,16078.75681,-100.58970,
,,,16128.07815, -98.98970,
,,,16177.39949, -97.78970,
,,,16226.72083, -97.38970,
,,,16276.04217, -94.58970,
,,,16325.36351, -96.98970,
,,,16374.68485,-102.98970,
,,,16424.00619, -93.78970,
,,,16473.32753, -93.38970,
,,,16522.64887,-102.98970,
,,,16571.97021,-106.98970,
,,,16621.29155,-106.98970,
,,,16670.61289,-105.78970,
,,,16719.93423,-106.98970,
,,,16769.25557, -93.78970,
,,,16818.57691, -90.98970,
,,,16867.89825, -90.18970,
,,,16917.21959, -91.38970,
,,,16966.54093, -92.18970,
,,,17015.86227, -97.78970,
,,,17065.18361, -94.98970,
,,,17114.50495, -91.78970,
,,,17163.82629, -91.38970,
,,,17213.14763, -94.18970,
,,,17262.46897,-105.78970,
,,,17311.79031, -97.78970,
,,,17361.11165, -97.38970,
,,,17410.43299, -96.98970,
,,,17459.75433, -95.78970,
,,,17509.07567, -92.98970,
,,,17558.39701, -90.18970,
,,,17607.71835,-102.98970,
,,,17657.03969,-106.98970,
,,,17706.36103,-105.78970,
,,,17755.68237, -97.38970,
,,,17805.00371, -91.38970,
,,,17854.32505, -90.58970,
,,,17903.64639, -96.18970,
,,,17952.96773,-105.78970,
,,,18002.28907, -97.78970,
,,,18051.61041,-100.58970,
,,,18100.93175,-102.98970,
,,,18150.25309,-101.78970,
,,,18199.57443, -94.98970,
,,,18248.89577, -88.98970,
,,,18298.21711, -90.58970,
,,,18347.53845, -95.78970,
,,,18396.85979, -92.18970,
,,,18446.18113,-100.58970,
,,,18495.50247, -93.78970,
,,,18544.82381, -98.98970,
,,,18594.14515,-103.78970,
,,,18643.46649,-105.78970,
,,,18692.78783, -95.78970,
,,,18742.10917, -92.98970,
,,,18791.43051, -97.78970,
,,,18840.75185,-100.58970,
,,,18890.07319, -95.38970,
,,,18939.39453,-106.98970,
,,,18988.71587, -96.18970,
,,,19038.03721, -94.98970,
,,,19087.35855, -94.98970,
,,,19136.67989, -93.38970,
,,,19186.00123, -97.78970,
,,,19235.32257,-105.78970,
,,,19284.64391, -97.78970,
,,,19333.96525, -91.78970,
,,,19383.28659,-100.58970,
,,,19432.60793, -92.18970,
,,,19481.92927, -91.38970,
,,,19531.25061, -93.78970,
,,,19580.57195, -92.58970,
,,,19629.89329, -90.58970,
,,,19679.21463, -90.58970,
,,,19728.53597, -90.18970,
,,,19777.85731, -89.78970,
,,,19827.17865, -91.38970,
,,,19876.49999, -90.58970,
,,,19925.82133, -90.18970,
,,,19975.14267, -92.18970,
,,,20024.46401, -88.58970,
,,,20073.78535, -88.18970,
,,,20123.10669, -88.98970,
,,,20172.42803, -86.58970,
,,,20221.74937, -88.58970,
,,,20271.07071, -89.78970,
,,,20320.39205, -85.78970,
,,,20369.71339, -87.38970,
,,,20419.03473, -91.78970,
,,,20468.35607, -89.38970,
,,,20517.67741, -87.78970,
,,,20566.99875, -88.98970,
,,,20616.32009, -88.58970,
,,,20665.64143, -89.38970,
,,,20714.96277, -90.58970,
,,,20764.28411, -88.18970,
,,,20813.60545, -89.38970,
,,,20862.92679, -93.78970,
,,,20912.24813, -94.98970,
,,,20961.56947, -95.38970,
,,,21010.89081, -94.98970,
,,,21060.21215,-101.78970,
,,,21109.53349, -98.18970,
,,,21158.85483, -93.38970,
,,,21208.17617, -92.58970,
,,,21257.49751, -94.98970,
,,,21306.81885, -96.18970,
,,,21356.14019,-102.98970,
,,,21405.46153, -96.98970,
,,,21454.78287,-105.78970,
,,,21504.10421,-103.38970,
,,,21553.42555, -95.78970,
,,,21602.74689, -89.38970,
,,,21652.06823, -88.98970,
,,,21701.38957, -93.78970,
,,,21750.71091,-106.98970,
,,,21800.03225, -99.78970,
,,,21849.35359,-105.78970,
,,,21898.67493, -96.58970,
,,,21947.99627, -92.58970,
,,,21997.31761, -93.78970,
,,,22046.63895, -94.18970,
,,,22095.96029, -89.38970,
,,,22145.28163, -91.38970,
,,,22194.60297,-106.98970,
,,,22243.92431, -93.78970,
,,,22293.24565, -95.78970,
,,,22342.56699, -91.38970,
,,,22391.88833, -88.58970,
,,,22441.20967, -88.18970,
,,,22490.53101, -98.98970,
,,,22539.85235,-100.98970,
,,,22589.17369, -94.18970,
,,,22638.49503, -87.38970,
,,,22687.81637, -86.58970,
,,,22737.13771, -92.98970,
,,,22786.45905, -96.58970,
,,,22835.78039, -95.78970,
,,,22885.10173, -92.98970,
,,,22934.42307, -93.78970,
,,,22983.74441, -89.78970,
,,,23033.06575, -89.78970,
,,,23082.38709, -93.78970,
,,,23131.70843, -94.98970,
,,,23181.02977, -95.78970,
,,,23230.35111,-103.78970,
,,,23279.67245,-103.78970,
,,,23328.99379, -93.78970,
,,,23378.31513, -96.58970,
,,,23427.63647, -96.98970,
,,,23476.95781, -93.78970,
,,,23526.27915, -97.78970,
,,,23575.60049,-103.78970,
,,,23624.92183, -98.18970,
,,,23674.24317, -90.98970,
,,,23723.56451, -87.78970,
,,,23772.88585, -92.98970,
,,,23822.20719, -96.58970,
,,,23871.52853, -94.98970,
,,,23920.84987,-106.98970,
,,,23970.17121, -92.98970,
,,,24019.49255, -89.38970,
,,,24068.81389, -94.58970,
,,,24118.13523, -96.98970,
,,,24167.45657, -98.98970,
,,,24216.77791, -97.38970,
,,,24266.09925, -91.78970,
,,,24315.42059, -88.58970,
,,,24364.74193, -91.38970,
,,,24414.06327, -96.98970,
,,,24463.38461, -96.98970,
,,,24512.70595, -87.38970,
,,,24562.02729, -92.98970,
,,,24611.34863, -94.58970,
,,,24660.66997, -91.38970,
,,,24709.99131, -94.18970,
,,,24759.31265,-106.98970,
,,,24808.63399, -94.98970,
,,,24857.95533, -90.58970,
,,,24907.27667, -90.18970,
,,,24956.59801,-100.98970,
,,,25005.91935, -95.78970,
,,,25055.24069, -91.78970,
,,,25104.56203, -94.18970,
,,,25153.88337, -96.18970,
,,,25203.20471, -92.18970,
,,,25252.52605,-103.38970,
,,,25301.84739, -98.98970,
,,,25351.16873,-101.78970,
,,,25400.49007, -92.18970,
,,,25449.81141, -96.98970,
,,,25499.13275,-100.58970,
,,,25548.45409, -98.98970,
,,,25597.77543,-100.98970,
,,,25647.09677, -94.58970,
,,,25696.41811, -97.78970,
,,,25745.73945,-105.78970,
,,,25795.06079,-106.98970,
,,,25844.38213, -93.78970,
,,,25893.70347, -93.78970,
,,,25943.02481, -99.78970,
,,,25992.34615, -93.78970,
,,,26041.66749, -90.18970,
,,,26090.98883, -88.98970,
,,,26140.31017, -95.38970,
,,,26189.63151, -91.38970,
,,,26238.95285, -93.78970,
,,,26288.27419, -96.98970,
,,,26337.59553, -99.78970,
,,,26386.91687, -88.98970,
,,,26436.23821, -91.38970,
,,,26485.55955, -95.78970,
,,,26534.88089, -94.98970,
,,,26584.20223, -92.98970,
,,,26633.52357, -86.98970,
,,,26682.84491, -90.58970,
,,,26732.16625, -89.78970,
,,,26781.48759, -85.78970,
,,,26830.80893, -86.58970,
,,,26880.13027, -90.98970,
,,,26929.45161, -94.58970,
,,,26978.77295, -98.18970,
,,,27028.09429, -92.58970,
,,,27077.41563, -91.38970,
,,,27126.73697, -89.38970,
,,,27176.05831, -87.78970,
,,,27225.37965, -90.18970,
,,,27274.70099, -97.38970,
,,,27324.02233,-105.78970,
,,,27373.34367, -95.78970,
,,,27422.66501,-106.98970,
,,,27471.98635, -98.98970,
,,,27521.30769, -97.38970,
,,,27570.62903, -95.78970,
,,,27619.95037, -96.18970,
,,,27669.27171, -94.18970,
,,,27718.59305, -88.58970,
,,,27767.91439, -89.38970,
,,,27817.23573, -98.98970,
,,,27866.55707, -89.38970,
,,,27915.87841, -89.78970,
,,,27965.19975, -91.78970,
,,,28014.52109, -91.38970,
,,,28063.84243, -98.98970,
,,,28113.16377, -88.18970,
,,,28162.48511, -90.58970,
,,,28211.80645, -86.58970,
,,,28261.12779, -94.58970,
,,,28310.44913, -93.38970,
,,,28359.77047,-100.98970,
,,,28409.09181,-100.58970,
,,,28458.41315, -98.98970,
,,,28507.73449,-100.98970,
,,,28557.05583,-105.78970,
,,,28606.37717, -98.18970,
,,,28655.69851, -95.78970,
,,,28705.01985, -95.78970,
,,,28754.34119, -98.98970,
,,,28803.66253,-105.78970,
,,,28852.98387, -96.18970,
,,,28902.30521, -94.98970,
,,,28951.62655, -94.18970,
,,,29000.94789, -90.58970,
,,,29050.26923, -92.18970,
,,,29099.59057,-102.98970,
,,,29148.91191,-102.98970,
,,,29198.23325, -98.98970,
,,,29247.55459, -91.38970,
,,,29296.87593, -90.18970,
,,,29346.19727, -91.78970,
,,,29395.51861, -90.98970,
,,,29444.83995, -88.58970,
,,,29494.16129, -97.38970,
,,,29543.48263, -99.78970,
,,,29592.80397,-101.78970,
,,,29642.12531, -95.78970,
,,,29691.44665, -94.98970,
,,,29740.76799,-100.58970,
,,,29790.08933,-106.98970,
,,,29839.41067,-100.58970,
,,,29888.73201,-101.78970,
,,,29938.05335,-100.58970,
,,,29987.37469, -91.78970,
,,,30036.69603, -94.18970,
,,,30086.01737,-100.98970,
,,,30135.33871, -92.98970,
,,,30184.66005, -91.38970,
,,,30233.98139, -92.18970,
,,,30283.30273, -94.18970,
,,,30332.62407, -96.58970,
,,,30381.94541, -89.78970,
,,,30431.26675, -87.38970,
,,,30480.58809, -91.78970,
,,,30529.90943,-101.78970,
,,,30579.23077, -92.98970,
,,,30628.55211, -93.38970,
,,,30677.87345, -95.78970,
,,,30727.19479, -99.78970,
,,,30776.51613,-105.78970,
,,,30825.83747,-100.98970,
,,,30875.15881,-105.78970,
,,,30924.48015, -99.78970,
,,,30973.80149, -96.98970,
,,,31023.12283,-105.78970,
,,,31072.44417,-106.98970,
,,,31121.76551,-105.78970,
,,,31171.08685,-102.98970,
,,,31220.40819, -97.38970,
,,,31269.72953,-103.38970,
,,,31319.05087, -84.98970,
,,,31368.37221, -83.38970,
,,,31417.69355, -93.78970,
,,,31467.01489, -90.58970,
,,,31516.33623, -86.58970,
,,,31565.65757, -90.98970,
,,,31614.97891, -92.98970,
,,,31664.30025, -85.78970,
,,,31713.62159, -84.98970,
,,,31762.94293, -88.18970,
,,,31812.26427, -91.38970,
,,,31861.58561,-100.58970,
,,,31910.90695, -97.38970,
,,,31960.22829,-106.98970,
,,,32009.54963, -94.18970,
,,,32058.87097, -97.38970,
,,,32108.19231, -95.78970,
,,,32157.51365, -98.98970,
,,,32206.83499, -98.98970,
,,,32256.15633, -98.98970,
,,,32305.47767,-103.38970,
,,,32354.79901,-100.58970,
,,,32404.12035, -99.78970,
,,,32453.44169, -97.78970,
,,,32502.76303,-103.78970,
,,,32552.08437,-102.98970,
,,,32601.40571, -96.98970,
,,,32650.72705, -98.98970,
,,,32700.04839,-100.58970,
,,,32749.36973, -92.18970,
,,,32798.69107, -90.18970,
,,,32848.01241, -92.18970,
,,,32897.33375, -98.98970,
,,,32946.65509,-100.58970,
,,,32995.97643, -90.18970,
,,,33045.29777, -89.78970,
,,,33094.61911, -96.58970,
,,,33143.94045, -92.98970,
,,,33193.26179, -92.18970,
,,,33242.58313, -96.18970,
,,,33291.90447,-106.98970,
,,,33341.22581, -98.98970,
,,,33390.54715, -94.58970,
,,,33439.86849, -98.18970,
,,,33489.18983, -94.98970,
,,,33538.51117,-105.78970,
,,,33587.83251,-102.98970,
,,,33637.15385, -94.98970,
,,,33686.47519, -92.58970,
,,,33735.79653, -93.78970,
,,,33785.11787, -92.98970,
,,,33834.43921, -91.38970,
,,,33883.76055, -90.18970,
,,,33933.08189, -90.18970,
,,,33982.40323, -93.38970,
,,,34031.72457, -93.38970,
,,,34081.04591, -95.38970,
,,,34130.36725, -96.98970,
,,,34179.68859,-106.98970,
,,,34229.00993, -89.38970,
,,,34278.33127, -88.18970,
,,,34327.65261, -92.18970,
,,,34376.97395, -92.58970,
,,,34426.29529, -94.98970,
,,,34475.61663, -95.78970,
,,,34524.93797, -92.58970,
,,,34574.25931, -96.98970,
,,,34623.58065, -92.18970,
,,,34672.90199, -91.78970,
,,,34722.22333,-102.98970,
,,,34771.54467, -90.98970,
,,,34820.86601, -96.98970,
,,,34870.18735,-100.58970,
,,,34919.50869, -93.78970,
,,,34968.83003, -98.98970,
,,,35018.15137,-100.98970,
,,,35067.47271, -98.18970,
,,,35116.79405, -98.98970,
,,,35166.11539,-100.58970,
,,,35215.43673,-105.78970,
,,,35264.75807, -97.78970,
,,,35314.07941, -93.78970,
,,,35363.40075, -94.18970,
,,,35412.72209, -96.98970,
,,,35462.04343,-102.98970,
,,,35511.36477,-106.98970,
,,,35560.68611, -98.98970,
,,,35610.00745, -95.78970,
,,,35659.32879, -97.78970,
,,,35708.65013, -96.18970,
,,,35757.97147, -96.98970,
,,,35807.29281, -96.18970,
,,,35856.61415, -91.38970,
,,,35905.93549, -95.38970,
,,,35955.25683,-105.78970,
,,,36004.57817,-106.98970,
