Logiciel & Hardware/FFT_piezo_Test/Nain/Barbe2/F0005MTH.CSV

Record Length,1.024000e+03,,          0.00000, -68.18970,
Sample Interval,4.932134e+01,,         49.32134, -60.98970,
Trigger Point,0.000000000000e+00,,         98.64268, -66.58970,
,,,        147.96402, -79.38970,
,,,        197.28535, -87.38970,
,,,        246.60669, -85.38970,
Source,MATH,,        295.92803, -82.98970,
Vertical Units,dB,,        345.24937, -86.18970,
Vertical Scale,1.000000e+01,,        394.57071, -90.58970,
Vertical Offset,0.000000e+00,,        443.89205, -95.78970,
Horizontal Units,Hz,,        493.21338, -92.98970,
Horizontal Scale,5.050505e+03,,        542.53472, -88.58970,
Pt Fmt,Y,,        591.85606, -92.18970,
Yzero,-6.698970e+01,,        641.17740, -94.18970,
Probe Atten,1.000000e+00,,        690.49874, -93.38970,
Model Number,TDS2012B,,        739.82008, -92.58970,
Serial Number,C103583,,        789.14141, -92.98970,
Firmware Version,FV:v22.11,,        838.46275, -92.18970,
,,,887.78409, -92.98970,
,,,937.10543, -93.78970,
,,,986.42677, -94.98970,
,,,1035.74811, -95.38970,
,,,1085.06945, -95.38970,
,,,1134.39079, -93.78970,
,,,1183.71213, -93.38970,
,,,1233.03347, -92.98970,
,,,1282.35481, -97.78970,
,,,1331.67615, -99.78970,
,,,1380.99749, -96.98970,
,,,1430.31883,-106.98970,
,,,1479.64017,-101.78970,
,,,1528.96151, -98.98970,
,,,1578.28285, -90.18970,
,,,1627.60419, -90.98970,
,,,1676.92553, -95.78970,
,,,1726.24687,-106.98970,
,,,1775.56821, -93.78970,
,,,1824.88955, -87.78970,
,,,1874.21089, -89.38970,
,,,1923.53223, -96.98970,
,,,1972.85357, -98.18970,
,,,2022.17491,-105.78970,
,,,2071.49625, -96.98970,
,,,2120.81759, -90.58970,
,,,2170.13893, -89.38970,
,,,2219.46027, -91.38970,
,,,2268.78161, -90.58970,
,,,2318.10295, -88.98970,
,,,2367.42429, -92.18970,
,,,2416.74563, -98.18970,
,,,2466.06697, -98.98970,
,,,2515.38831, -93.78970,
,,,2564.70965, -93.38970,
,,,2614.03099, -95.78970,
,,,2663.35233, -98.98970,
,,,2712.67367,-102.98970,
,,,2761.99501, -96.58970,
,,,2811.31635, -94.98970,
,,,2860.63769, -98.98970,
,,,2909.95903,-106.98970,
,,,2959.28037, -95.78970,
,,,3008.60171, -89.78970,
,,,3057.92305, -92.98970,
,,,3107.24439, -98.98970,
,,,3156.56573, -90.98970,
,,,3205.88707, -95.78970,
,,,3255.20841,-106.98970,
,,,3304.52975,-100.98970,
,,,3353.85109, -90.18970,
,,,3403.17243, -92.18970,
,,,3452.49377, -88.18970,
,,,3501.81511, -93.78970,
,,,3551.13645,-102.98970,
,,,3600.45779, -97.38970,
,,,3649.77913,-100.98970,
,,,3699.10047, -95.78970,
,,,3748.42181, -94.98970,
,,,3797.74315, -98.98970,
,,,3847.06449, -96.98970,
,,,3896.38583, -98.98970,
,,,3945.70717, -92.98970,
,,,3995.02851, -92.98970,
,,,4044.34985, -93.38970,
,,,4093.67119, -92.98970,
,,,4142.99253, -96.58970,
,,,4192.31387, -94.18970,
,,,4241.63521, -92.98970,
,,,4290.95655, -92.18970,
,,,4340.27789, -92.58970,
,,,4389.59923, -97.78970,
,,,4438.92057, -96.58970,
,,,4488.24191, -96.18970,
,,,4537.56325,-100.58970,
,,,4586.88459, -97.78970,
,,,4636.20593, -92.58970,
,,,4685.52727, -94.98970,
,,,4734.84861, -96.98970,
,,,4784.16995,-106.98970,
,,,4833.49129, -98.18970,
,,,4882.81263,-106.98970,
,,,4932.13397,-100.58970,
,,,4981.45531, -97.38970,
,,,5030.77665, -99.78970,
,,,5080.09799,-100.58970,
,,,5129.41933,-102.98970,
,,,5178.74067,-100.58970,
,,,5228.06201, -96.98970,
,,,5277.38335,-105.78970,
,,,5326.70469,-101.78970,
,,,5376.02603, -90.98970,
,,,5425.34737, -86.98970,
,,,5474.66871, -89.38970,
,,,5523.99005, -94.98970,
,,,5573.31139, -94.98970,
,,,5622.63273, -92.98970,
,,,5671.95407, -95.78970,
,,,5721.27541, -93.78970,
,,,5770.59675, -89.38970,
,,,5819.91809, -90.98970,
,,,5869.23943, -94.98970,
,,,5918.56077, -98.98970,
,,,5967.88211,-100.58970,
,,,6017.20345,-100.58970,
,,,6066.52479, -98.98970,
,,,6115.84613,-103.38970,
,,,6165.16747, -95.78970,
,,,6214.48881, -95.38970,
,,,6263.81015, -96.98970,
,,,6313.13149, -98.98970,
,,,6362.45283, -98.98970,
,,,6411.77417, -91.78970,
,,,6461.09551, -91.38970,
,,,6510.41685,-103.78970,
,,,6559.73819, -92.98970,
,,,6609.05953, -88.98970,
,,,6658.38087, -91.38970,
,,,6707.70221,-105.78970,
,,,6757.02355, -95.78970,
,,,6806.34489, -92.18970,
,,,6855.66623,-101.78970,
,,,6904.98757, -98.98970,
,,,6954.30891, -92.18970,
,,,7003.63025, -90.98970,
,,,7052.95159, -92.18970,
,,,7102.27293, -90.58970,
,,,7151.59427, -94.98970,
,,,7200.91561, -97.78970,
,,,7250.23695, -90.98970,
,,,7299.55829, -90.18970,
,,,7348.87963, -92.98970,
,,,7398.20097,-100.58970,
,,,7447.52231, -99.78970,
,,,7496.84365, -98.98970,
,,,7546.16499, -97.78970,
,,,7595.48633, -96.98970,
,,,7644.80767, -94.58970,
,,,7694.12901, -94.98970,
,,,7743.45035, -93.78970,
,,,7792.77169, -92.98970,
,,,7842.09303, -93.38970,
,,,7891.41437, -92.58970,
,,,7940.73571, -94.98970,
,,,7990.05705,-100.58970,
,,,8039.37839, -98.98970,
,,,8088.69973, -98.18970,
,,,8138.02107,-106.98970,
,,,8187.34241,-100.58970,
,,,8236.66375, -90.58970,
,,,8285.98509, -89.78970,
,,,8335.30643,-106.98970,
,,,8384.62777, -94.98970,
,,,8433.94911, -96.18970,
,,,8483.27045, -97.38970,
,,,8532.59179, -94.98970,
,,,8581.91313, -92.98970,
,,,8631.23447, -93.78970,
,,,8680.55581, -98.98970,
,,,8729.87715, -99.78970,
,,,8779.19849, -96.98970,
,,,8828.51983, -98.98970,
,,,8877.84117, -98.98970,
,,,8927.16251, -92.58970,
,,,8976.48385, -93.38970,
,,,9025.80519, -96.98970,
,,,9075.12653, -95.78970,
,,,9124.44787, -95.78970,
,,,9173.76921,-106.98970,
,,,9223.09055,-100.58970,
,,,9272.41189,-106.98970,
,,,9321.73323, -95.78970,
,,,9371.05457, -98.98970,
,,,9420.37591, -95.78970,
,,,9469.69725, -92.58970,
,,,9519.01859,-106.98970,
,,,9568.33993, -96.98970,
,,,9617.66127, -92.18970,
,,,9666.98261, -92.58970,
,,,9716.30395,-100.98970,
,,,9765.62529, -95.78970,
,,,9814.94663, -96.18970,
,,,9864.26797, -97.38970,
,,,9913.58931, -92.58970,
,,,9962.91065, -91.38970,
,,,10012.23199, -97.78970,
,,,10061.55333, -95.78970,
,,,10110.87467, -98.98970,
,,,10160.19601,-102.98970,
,,,10209.51735, -97.38970,
,,,10258.83869, -95.38970,
,,,10308.16003, -93.38970,
,,,10357.48137, -95.78970,
,,,10406.80271,-106.98970,
,,,10456.12405, -95.78970,
,,,10505.44539, -94.98970,
,,,10554.76673, -96.98970,
,,,10604.08807, -90.18970,
,,,10653.40941, -92.18970,
,,,10702.73075,-102.98970,
,,,10752.05209, -99.78970,
,,,10801.37343, -97.38970,
,,,10850.69477,-100.58970,
,,,10900.01611,-100.58970,
,,,10949.33745, -97.78970,
,,,10998.65879, -92.58970,
,,,11047.98013, -93.78970,
,,,11097.30147, -95.78970,
,,,11146.62281, -97.38970,
,,,11195.94415,-106.98970,
,,,11245.26549, -98.98970,
,,,11294.58683,-105.78970,
,,,11343.90817,-106.98970,
,,,11393.22951, -94.98970,
,,,11442.55085, -94.98970,
,,,11491.87219, -97.38970,
,,,11541.19353, -98.18970,
,,,11590.51487, -98.98970,
,,,11639.83621, -90.98970,
,,,11689.15755, -91.78970,
,,,11738.47889, -87.78970,
,,,11787.80023, -92.98970,
,,,11837.12157,-100.58970,
,,,11886.44291, -99.78970,
,,,11935.76425, -90.58970,
,,,11985.08559, -94.98970,
,,,12034.40693, -99.78970,
,,,12083.72827, -98.98970,
,,,12133.04961, -98.98970,
,,,12182.37095,-103.38970,
,,,12231.69229, -94.18970,
,,,12281.01363,-106.98970,
,,,12330.33497,-102.98970,
,,,12379.65631,-106.98970,
,,,12428.97765, -95.78970,
,,,12478.29899, -92.18970,
,,,12527.62033, -98.18970,
,,,12576.94167,-106.98970,
,,,12626.26301, -94.58970,
,,,12675.58435, -95.38970,
,,,12724.90569, -98.98970,
,,,12774.22703, -93.78970,
,,,12823.54837, -96.98970,
,,,12872.86971,-103.38970,
,,,12922.19105,-105.78970,
,,,12971.51239,-106.98970,
,,,13020.83373,-106.98970,
,,,13070.15507, -92.18970,
,,,13119.47641, -93.38970,
,,,13168.79775,-103.78970,
,,,13218.11909,-105.78970,
,,,13267.44043, -96.98970,
,,,13316.76177,-101.78970,
,,,13366.08311,-100.98970,
,,,13415.40445, -97.38970,
,,,13464.72579, -98.98970,
,,,13514.04713, -93.38970,
,,,13563.36847, -94.58970,
,,,13612.68981, -98.98970,
,,,13662.01115,-100.58970,
,,,13711.33249, -95.78970,
,,,13760.65383, -95.38970,
,,,13809.97517, -95.78970,
,,,13859.29651, -90.98970,
,,,13908.61785, -94.98970,
,,,13957.93919, -96.98970,
,,,14007.26053, -98.98970,
,,,14056.58187, -97.38970,
,,,14105.90321, -96.98970,
,,,14155.22455, -97.38970,
,,,14204.54589, -95.78970,
,,,14253.86723,-106.98970,
,,,14303.18857,-103.38970,
,,,14352.50991, -94.58970,
,,,14401.83125, -90.58970,
,,,14451.15259,-105.78970,
,,,14500.47393, -96.98970,
,,,14549.79527, -91.78970,
,,,14599.11661, -92.18970,
,,,14648.43795, -99.78970,
,,,14697.75929, -92.18970,
,,,14747.08063, -92.98970,
,,,14796.40197,-101.78970,
,,,14845.72331, -97.38970,
,,,14895.04465, -95.78970,
,,,14944.36599,-105.78970,
,,,14993.68733, -97.38970,
,,,15043.00867, -94.98970,
,,,15092.33001, -94.98970,
,,,15141.65135, -94.18970,
,,,15190.97269, -92.98970,
,,,15240.29403, -90.18970,
,,,15289.61537, -90.98970,
,,,15338.93671, -91.78970,
,,,15388.25805, -88.18970,
,,,15437.57939, -95.78970,
,,,15486.90073, -95.38970,
,,,15536.22207, -94.98970,
,,,15585.54341, -98.98970,
,,,15634.86475, -93.38970,
,,,15684.18609, -91.78970,
,,,15733.50743, -97.78970,
,,,15782.82877, -91.78970,
,,,15832.15011, -90.58970,
,,,15881.47145, -92.18970,
,,,15930.79279, -90.18970,
,,,15980.11413, -94.98970,
,,,16029.43547,-106.98970,
,,,16078.75681, -95.38970,
,,,16128.07815, -92.98970,
,,,16177.39949, -96.98970,
,,,16226.72083,-102.98970,
,,,16276.04217,-106.98970,
,,,16325.36351,-101.78970,
,,,16374.68485, -98.98970,
,,,16424.00619,-103.78970,
,,,16473.32753, -98.98970,
,,,16522.64887, -91.38970,
,,,16571.97021, -97.38970,
,,,16621.29155,-100.58970,
,,,16670.61289,-102.98970,
,,,16719.93423, -94.98970,
,,,16769.25557, -97.38970,
,,,16818.57691,-102.98970,
,,,16867.89825,-106.98970,
,,,16917.21959, -98.98970,
,,,16966.54093,-106.98970,
,,,17015.86227, -99.78970,
,,,17065.18361,-101.78970,
,,,17114.50495,-106.98970,
,,,17163.82629, -98.18970,
,,,17213.14763,-103.78970,
,,,17262.46897,-102.98970,
,,,17311.79031, -93.78970,
,,,17361.11165, -98.18970,
,,,17410.43299,-100.58970,
,,,17459.75433,-101.78970,
,,,17509.07567, -89.38970,
,,,17558.39701, -96.58970,
,,,17607.71835,-102.98970,
,,,17657.03969, -96.18970,
,,,17706.36103, -94.18970,
,,,17755.68237,-106.98970,
,,,17805.00371,-106.98970,
,,,17854.32505, -98.18970,
,,,17903.64639, -94.18970,
,,,17952.96773, -95.78970,
,,,18002.28907,-100.98970,
,,,18051.61041,-101.78970,
,,,18100.93175, -96.98970,
,,,18150.25309, -95.38970,
,,,18199.57443, -97.38970,
,,,18248.89577,-105.78970,
,,,18298.21711, -99.78970,
,,,18347.53845, -98.98970,
,,,18396.85979,-102.98970,
,,,18446.18113,-106.98970,
,,,18495.50247,-101.78970,
,,,18544.82381,-100.58970,
,,,18594.14515, -95.38970,
,,,18643.46649, -98.98970,
,,,18692.78783, -96.58970,
,,,18742.10917, -95.78970,
,,,18791.43051, -97.78970,
,,,18840.75185, -97.78970,
,,,18890.07319, -92.18970,
,,,18939.39453, -98.98970,
,,,18988.71587, -92.98970,
,,,19038.03721, -96.58970,
,,,19087.35855, -99.78970,
,,,19136.67989, -92.98970,
,,,19186.00123, -94.58970,
,,,19235.32257, -95.78970,
,,,19284.64391,-106.98970,
,,,19333.96525, -95.38970,
,,,19383.28659, -95.78970,
,,,19432.60793,-100.58970,
,,,19481.92927, -96.98970,
,,,19531.25061,-100.58970,
,,,19580.57195,-106.98970,
,,,19629.89329, -98.98970,
,,,19679.21463, -97.78970,
,,,19728.53597, -90.58970,
,,,19777.85731, -94.98970,
,,,19827.17865, -96.58970,
,,,19876.49999,-102.98970,
,,,19925.82133, -95.78970,
,,,19975.14267, -94.98970,
,,,20024.46401,-106.98970,
,,,20073.78535, -98.98970,
,,,20123.10669, -96.98970,
,,,20172.42803, -94.18970,
,,,20221.74937, -88.58970,
,,,20271.07071, -95.38970,
,,,20320.39205, -98.98970,
,,,20369.71339, -98.18970,
,,,20419.03473, -96.98970,
,,,20468.35607, -90.58970,
,,,20517.67741, -97.78970,
,,,20566.99875, -94.58970,
,,,20616.32009, -94.98970,
,,,20665.64143, -97.38970,
,,,20714.96277,-100.58970,
,,,20764.28411, -96.98970,
,,,20813.60545, -92.18970,
,,,20862.92679, -92.58970,
,,,20912.24813, -92.98970,
,,,20961.56947, -93.78970,
,,,21010.89081, -92.58970,
,,,21060.21215, -94.18970,
,,,21109.53349, -98.98970,
,,,21158.85483, -95.78970,
,,,21208.17617,-100.58970,
,,,21257.49751,-103.78970,
,,,21306.81885,-106.98970,
,,,21356.14019,-106.98970,
,,,21405.46153,-106.98970,
,,,21454.78287,-101.78970,
,,,21504.10421,-102.98970,
,,,21553.42555, -98.18970,
,,,21602.74689, -96.98970,
,,,21652.06823, -92.98970,
,,,21701.38957, -90.58970,
,,,21750.71091, -91.38970,
,,,21800.03225, -92.58970,
,,,21849.35359,-101.78970,
,,,21898.67493,-102.98970,
,,,21947.99627, -91.78970,
,,,21997.31761, -91.78970,
,,,22046.63895,-106.98970,
,,,22095.96029,-100.58970,
,,,22145.28163, -99.78970,
,,,22194.60297, -95.78970,
,,,22243.92431, -97.78970,
,,,22293.24565, -94.98970,
,,,22342.56699, -90.18970,
,,,22391.88833, -90.98970,
,,,22441.20967, -94.98970,
,,,22490.53101,-106.98970,
,,,22539.85235,-106.98970,
,,,22589.17369,-106.98970,
,,,22638.49503, -98.18970,
,,,22687.81637, -94.58970,
,,,22737.13771, -93.78970,
,,,22786.45905,-106.98970,
,,,22835.78039, -93.78970,
,,,22885.10173,-103.78970,
,,,22934.42307, -92.98970,
,,,22983.74441, -94.98970,
,,,23033.06575, -90.58970,
,,,23082.38709,-102.98970,
,,,23131.70843, -88.58970,
,,,23181.02977, -93.38970,
,,,23230.35111,-100.58970,
,,,23279.67245, -91.38970,
,,,23328.99379,-106.98970,
,,,23378.31513, -91.78970,
,,,23427.63647,-100.98970,
,,,23476.95781,-102.98970,
,,,23526.27915,-101.78970,
,,,23575.60049,-101.78970,
,,,23624.92183, -90.58970,
,,,23674.24317, -89.38970,
,,,23723.56451, -97.38970,
,,,23772.88585, -92.18970,
,,,23822.20719, -89.78970,
,,,23871.52853,-106.98970,
,,,23920.84987, -96.98970,
,,,23970.17121,-100.58970,
,,,24019.49255, -95.78970,
,,,24068.81389, -90.18970,
,,,24118.13523, -88.98970,
,,,24167.45657, -92.98970,
,,,24216.77791, -97.38970,
,,,24266.09925, -96.98970,
,,,24315.42059, -89.38970,
,,,24364.74193, -90.58970,
,,,24414.06327, -94.58970,
,,,24463.38461, -94.98970,
,,,24512.70595, -96.58970,
,,,24562.02729, -90.58970,
,,,24611.34863, -86.58970,
,,,24660.66997, -93.78970,
,,,24709.99131, -94.58970,
,,,24759.31265, -98.18970,
,,,24808.63399, -97.38970,
,,,24857.95533, -90.58970,
,,,24907.27667, -86.98970,
,,,24956.59801, -85.78970,
,,,25005.91935, -89.78970,
,,,25055.24069, -92.18970,
,,,25104.56203, -88.58970,
,,,25153.88337, -88.98970,
,,,25203.20471, -97.78970,
,,,25252.52605, -94.98970,
,,,25301.84739, -87.78970,
,,,25351.16873, -88.18970,
,,,25400.49007, -92.98970,
,,,25449.81141, -89.78970,
,,,25499.13275, -88.18970,
,,,25548.45409, -87.38970,
,,,25597.77543, -89.38970,
,,,25647.09677, -93.38970,
,,,25696.41811, -98.98970,
,,,25745.73945, -99.78970,
,,,25795.06079, -94.18970,
,,,25844.38213, -89.38970,
,,,25893.70347, -89.38970,
,,,25943.02481, -96.18970,
,,,25992.34615, -90.98970,
,,,26041.66749, -90.58970,
,,,26090.98883, -86.18970,
,,,26140.31017, -85.78970,
,,,26189.63151, -97.78970,
,,,26238.95285, -89.78970,
,,,26288.27419, -89.38970,
,,,26337.59553, -90.58970,
,,,26386.91687, -90.18970,
,,,26436.23821, -87.38970,
,,,26485.55955, -86.98970,
,,,26534.88089, -89.38970,
,,,26584.20223, -98.18970,
,,,26633.52357, -95.78970,
,,,26682.84491, -88.98970,
,,,26732.16625, -88.18970,
,,,26781.48759, -89.78970,
,,,26830.80893, -97.38970,
,,,26880.13027, -92.58970,
,,,26929.45161, -88.98970,
,,,26978.77295, -88.18970,
,,,27028.09429, -87.78970,
,,,27077.41563, -87.78970,
,,,27126.73697, -95.78970,
,,,27176.05831,-101.78970,
,,,27225.37965, -98.98970,
,,,27274.70099,-106.98970,
,,,27324.02233, -96.58970,
,,,27373.34367, -92.98970,
,,,27422.66501, -88.18970,
,,,27471.98635, -95.78970,
,,,27521.30769,-106.98970,
,,,27570.62903, -92.18970,
,,,27619.95037, -88.18970,
,,,27669.27171, -86.98970,
,,,27718.59305, -88.18970,
,,,27767.91439, -90.18970,
,,,27817.23573, -92.18970,
,,,27866.55707, -98.18970,
,,,27915.87841, -97.38970,
,,,27965.19975, -92.98970,
,,,28014.52109, -90.58970,
,,,28063.84243, -92.18970,
,,,28113.16377, -92.98970,
,,,28162.48511, -94.98970,
,,,28211.80645, -91.38970,
,,,28261.12779, -90.18970,
,,,28310.44913, -88.98970,
,,,28359.77047, -89.38970,
,,,28409.09181, -92.98970,
,,,28458.41315, -91.38970,
,,,28507.73449, -90.98970,
,,,28557.05583, -92.18970,
,,,28606.37717, -95.78970,
,,,28655.69851, -95.78970,
,,,28705.01985, -94.58970,
,,,28754.34119, -91.38970,
,,,28803.66253, -94.18970,
,,,28852.98387, -95.78970,
,,,28902.30521,-102.98970,
,,,28951.62655,-106.98970,
,,,29000.94789, -94.18970,
,,,29050.26923, -89.78970,
,,,29099.59057, -87.78970,
,,,29148.91191, -88.18970,
,,,29198.23325, -92.18970,
,,,29247.55459, -91.38970,
,,,29296.87593, -89.78970,
,,,29346.19727, -98.98970,
,,,29395.51861, -93.78970,
,,,29444.83995, -89.38970,
,,,29494.16129, -87.38970,
,,,29543.48263, -88.18970,
,,,29592.80397, -88.58970,
,,,29642.12531, -88.98970,
,,,29691.44665, -87.38970,
,,,29740.76799, -86.18970,
,,,29790.08933, -88.58970,
,,,29839.41067,-103.38970,
,,,29888.73201, -91.38970,
,,,29938.05335, -86.98970,
,,,29987.37469, -87.38970,
,,,30036.69603, -86.18970,
,,,30086.01737, -90.98970,
,,,30135.33871, -95.78970,
,,,30184.66005, -90.58970,
,,,30233.98139, -89.38970,
,,,30283.30273, -91.38970,
,,,30332.62407, -90.98970,
,,,30381.94541, -88.98970,
,,,30431.26675,-103.38970,
,,,30480.58809, -87.78970,
,,,30529.90943, -85.78970,
,,,30579.23077, -87.78970,
,,,30628.55211, -95.38970,
,,,30677.87345, -90.98970,
,,,30727.19479, -91.38970,
,,,30776.51613, -94.98970,
,,,30825.83747, -90.18970,
,,,30875.15881, -93.38970,
,,,30924.48015, -96.58970,
,,,30973.80149, -89.78970,
,,,31023.12283, -92.18970,
,,,31072.44417, -88.58970,
,,,31121.76551, -93.78970,
,,,31171.08685,-102.98970,
,,,31220.40819, -89.78970,
,,,31269.72953, -90.98970,
,,,31319.05087, -82.58970,
,,,31368.37221, -82.58970,
,,,31417.69355,-106.98970,
,,,31467.01489, -88.98970,
,,,31516.33623, -89.78970,
,,,31565.65757, -90.98970,
,,,31614.97891, -85.78970,
,,,31664.30025, -88.98970,
,,,31713.62159, -92.18970,
,,,31762.94293, -92.58970,
,,,31812.26427,-106.98970,
,,,31861.58561, -91.38970,
,,,31910.90695, -88.18970,
,,,31960.22829, -94.58970,
,,,32009.54963, -98.18970,
,,,32058.87097, -91.38970,
,,,32108.19231, -90.18970,
,,,32157.51365, -91.38970,
,,,32206.83499, -88.98970,
,,,32256.15633,-101.78970,
,,,32305.47767, -92.18970,
,,,32354.79901, -90.18970,
,,,32404.12035, -94.98970,
,,,32453.44169, -94.98970,
,,,32502.76303, -97.38970,
,,,32552.08437, -92.58970,
,,,32601.40571, -96.98970,
,,,32650.72705, -90.58970,
,,,32700.04839, -95.78970,
,,,32749.36973, -91.38970,
,,,32798.69107, -89.38970,
,,,32848.01241, -96.98970,
,,,32897.33375,-106.98970,
,,,32946.65509, -92.98970,
,,,32995.97643, -94.18970,
,,,33045.29777, -93.78970,
,,,33094.61911, -95.38970,
,,,33143.94045,-100.58970,
,,,33193.26179, -96.98970,
,,,33242.58313, -95.78970,
,,,33291.90447,-105.78970,
,,,33341.22581, -94.98970,
,,,33390.54715, -98.98970,
,,,33439.86849,-106.98970,
,,,33489.18983, -95.78970,
,,,33538.51117, -95.78970,
,,,33587.83251,-106.98970,
,,,33637.15385, -98.18970,
,,,33686.47519,-100.98970,
,,,33735.79653,-106.98970,
,,,33785.11787, -97.38970,
,,,33834.43921, -96.18970,
,,,33883.76055,-100.58970,
,,,33933.08189, -97.78970,
,,,33982.40323, -98.98970,
,,,34031.72457, -97.78970,
,,,34081.04591, -90.18970,
,,,34130.36725, -93.78970,
,,,34179.68859, -95.78970,
,,,34229.00993, -93.78970,
,,,34278.33127, -95.78970,
,,,34327.65261, -94.18970,
,,,34376.97395, -94.98970,
,,,34426.29529, -98.98970,
,,,34475.61663, -91.38970,
,,,34524.93797, -86.58970,
,,,34574.25931, -88.98970,
,,,34623.58065, -96.98970,
,,,34672.90199,-102.98970,
,,,34722.22333, -98.98970,
,,,34771.54467, -98.18970,
,,,34820.86601, -98.98970,
,,,34870.18735, -98.98970,
,,,34919.50869, -87.38970,
,,,34968.83003, -89.38970,
,,,35018.15137, -94.98970,
,,,35067.47271, -97.78970,
,,,35116.79405,-102.98970,
,,,35166.11539, -93.78970,
,,,35215.43673, -95.78970,
,,,35264.75807, -92.98970,
,,,35314.07941, -96.98970,
,,,35363.40075,-100.58970,
,,,35412.72209, -93.78970,
,,,35462.04343, -94.98970,
,,,35511.36477, -96.98970,
,,,35560.68611, -94.98970,
,,,35610.00745,-106.98970,
,,,35659.32879, -97.38970,
,,,35708.65013, -97.38970,
,,,35757.97147, -93.38970,
,,,35807.29281,-106.98970,
,,,35856.61415, -92.98970,
,,,35905.93549, -92.98970,
,,,35955.25683, -92.18970,
,,,36004.57817, -89.38970,
