Logiciel & Hardware/FFT_piezo_Test/Bouteille/Bas3/F0004MTH.CSV

Record Length,1.024000e+03,,          0.00000, -71.74850,
Sample Interval,4.932134e+01,,         49.32134, -69.74850,
Trigger Point,0.000000000000e+00,,         98.64268, -78.14850,
,,,        147.96402, -83.74850,
,,,        197.28535, -78.94850,
,,,        246.60669, -91.34850,
Source,MATH,,        295.92803, -91.74850,
Vertical Units,dB,,        345.24937, -87.74850,
Vertical Scale,1.000000e+01,,        394.57071, -83.74850,
Vertical Offset,0.000000e+00,,        443.89205, -92.94850,
Horizontal Units,Hz,,        493.21338, -84.94850,
Horizontal Scale,5.050505e+03,,        542.53472, -96.54850,
Pt Fmt,Y,,        591.85606, -94.14850,
Yzero,-7.494850e+01,,        641.17740, -91.74850,
Probe Atten,1.000000e+00,,        690.49874, -94.14850,
Model Number,TDS2012B,,        739.82008, -98.14850,
Serial Number,C103583,,        789.14141, -93.34850,
Firmware Version,FV:v22.11,,        838.46275, -96.94850,
,,,887.78409, -85.34850,
,,,937.10543, -90.94850,
,,,986.42677, -90.14850,
,,,1035.74811, -94.14850,
,,,1085.06945, -90.14850,
,,,1134.39079, -95.74850,
,,,1183.71213, -95.74850,
,,,1233.03347, -89.74850,
,,,1282.35481, -97.34850,
,,,1331.67615, -90.54850,
,,,1380.99749, -97.74850,
,,,1430.31883, -95.34850,
,,,1479.64017, -90.14850,
,,,1528.96151, -99.34850,
,,,1578.28285,-102.54850,
,,,1627.60419, -94.94850,
,,,1676.92553, -86.54850,
,,,1726.24687, -88.94850,
,,,1775.56821, -84.54850,
,,,1824.88955, -97.34850,
,,,1874.21089, -97.74850,
,,,1923.53223, -93.34850,
,,,1972.85357, -85.34850,
,,,2022.17491, -90.54850,
,,,2071.49625, -86.14850,
,,,2120.81759, -86.14850,
,,,2170.13893, -96.54850,
,,,2219.46027, -87.34850,
,,,2268.78161, -90.94850,
,,,2318.10295, -99.74850,
,,,2367.42429, -90.54850,
,,,2416.74563, -86.14850,
,,,2466.06697, -90.54850,
,,,2515.38831, -84.54850,
,,,2564.70965, -93.74850,
,,,2614.03099,-100.14850,
,,,2663.35233, -89.34850,
,,,2712.67367, -95.74850,
,,,2761.99501, -91.34850,
,,,2811.31635, -90.54850,
,,,2860.63769, -87.34850,
,,,2909.95903, -90.54850,
,,,2959.28037, -88.14850,
,,,3008.60171, -87.34850,
,,,3057.92305, -92.54850,
,,,3107.24439, -85.74850,
,,,3156.56573, -82.94850,
,,,3205.88707, -93.74850,
,,,3255.20841, -86.14850,
,,,3304.52975, -87.34850,
,,,3353.85109,-100.14850,
,,,3403.17243, -87.34850,
,,,3452.49377, -82.94850,
,,,3501.81511, -98.94850,
,,,3551.13645, -86.94850,
,,,3600.45779, -88.14850,
,,,3649.77913, -96.94850,
,,,3699.10047, -94.14850,
,,,3748.42181, -93.34850,
,,,3797.74315, -94.14850,
,,,3847.06449,-100.14850,
,,,3896.38583, -93.34850,
,,,3945.70717, -91.34850,
,,,3995.02851, -92.14850,
,,,4044.34985, -87.34850,
,,,4093.67119, -85.74850,
,,,4142.99253, -90.14850,
,,,4192.31387, -85.74850,
,,,4241.63521, -93.34850,
,,,4290.95655, -87.34850,
,,,4340.27789, -87.74850,
,,,4389.59923, -90.54850,
,,,4438.92057, -88.94850,
,,,4488.24191, -90.94850,
,,,4537.56325, -93.34850,
,,,4586.88459,-102.14850,
,,,4636.20593, -94.14850,
,,,4685.52727, -99.74850,
,,,4734.84861, -92.14850,
,,,4784.16995, -94.14850,
,,,4833.49129,-108.94850,
,,,4882.81263, -88.94850,
,,,4932.13397, -94.54850,
,,,4981.45531, -86.94850,
,,,5030.77665,-100.14850,
,,,5080.09799, -96.54850,
,,,5129.41933, -86.94850,
,,,5178.74067, -94.94850,
,,,5228.06201, -89.74850,
,,,5277.38335, -92.14850,
,,,5326.70469, -92.14850,
,,,5376.02603, -89.74850,
,,,5425.34737, -92.94850,
,,,5474.66871, -95.74850,
,,,5523.99005, -88.54850,
,,,5573.31139, -91.34850,
,,,5622.63273, -87.74850,
,,,5671.95407, -86.54850,
,,,5721.27541, -87.74850,
,,,5770.59675, -86.94850,
,,,5819.91809, -94.94850,
,,,5869.23943, -87.74850,
,,,5918.56077, -96.94850,
,,,5967.88211, -92.14850,
,,,6017.20345, -99.34850,
,,,6066.52479, -90.54850,
,,,6115.84613, -92.94850,
,,,6165.16747, -89.74850,
,,,6214.48881, -83.74850,
,,,6263.81015, -90.94850,
,,,6313.13149, -85.34850,
,,,6362.45283, -86.14850,
,,,6411.77417, -85.34850,
,,,6461.09551, -90.94850,
,,,6510.41685, -84.54850,
,,,6559.73819, -92.14850,
,,,6609.05953, -85.74850,
,,,6658.38087, -94.54850,
,,,6707.70221, -97.34850,
,,,6757.02355, -95.34850,
,,,6806.34489, -95.74850,
,,,6855.66623, -99.74850,
,,,6904.98757, -99.74850,
,,,6954.30891, -94.54850,
,,,7003.63025,-104.14850,
,,,7052.95159, -92.94850,
,,,7102.27293, -92.14850,
,,,7151.59427, -86.14850,
,,,7200.91561, -94.14850,
,,,7250.23695, -87.34850,
,,,7299.55829, -90.14850,
,,,7348.87963, -87.74850,
,,,7398.20097, -89.74850,
,,,7447.52231, -82.94850,
,,,7496.84365, -87.74850,
,,,7546.16499, -82.54850,
,,,7595.48633, -84.14850,
,,,7644.80767, -84.94850,
,,,7694.12901, -88.94850,
,,,7743.45035, -80.94850,
,,,7792.77169, -85.34850,
,,,7842.09303, -82.14850,
,,,7891.41437, -83.34850,
,,,7940.73571, -81.74850,
,,,7990.05705, -81.34850,
,,,8039.37839, -84.94850,
,,,8088.69973, -84.54850,
,,,8138.02107, -89.74850,
,,,8187.34241, -94.54850,
,,,8236.66375, -99.34850,
,,,8285.98509, -88.54850,
,,,8335.30643, -85.74850,
,,,8384.62777, -82.14850,
,,,8433.94911, -83.34850,
,,,8483.27045, -82.94850,
,,,8532.59179, -84.14850,
,,,8581.91313, -83.74850,
,,,8631.23447, -84.94850,
,,,8680.55581, -91.34850,
,,,8729.87715, -91.34850,
,,,8779.19849, -91.74850,
,,,8828.51983, -93.74850,
,,,8877.84117, -95.34850,
,,,8927.16251,-112.94850,
,,,8976.48385, -96.54850,
,,,9025.80519, -95.74850,
,,,9075.12653, -83.34850,
,,,9124.44787, -84.94850,
,,,9173.76921, -80.94850,
,,,9223.09055, -79.34850,
,,,9272.41189, -79.34850,
,,,9321.73323, -78.54850,
,,,9371.05457, -80.14850,
,,,9420.37591, -78.54850,
,,,9469.69725, -81.34850,
,,,9519.01859, -81.34850,
,,,9568.33993, -81.34850,
,,,9617.66127, -80.94850,
,,,9666.98261, -78.94850,
,,,9716.30395, -82.14850,
,,,9765.62529, -76.94850,
,,,9814.94663, -84.14850,
,,,9864.26797, -80.94850,
,,,9913.58931, -83.74850,
,,,9962.91065, -79.74850,
,,,10012.23199, -84.94850,
,,,10061.55333, -85.34850,
,,,10110.87467, -87.34850,
,,,10160.19601, -84.54850,
,,,10209.51735,-106.54850,
,,,10258.83869, -96.94850,
,,,10308.16003, -98.54850,
,,,10357.48137, -89.34850,
,,,10406.80271, -94.54850,
,,,10456.12405, -92.94850,
,,,10505.44539, -98.14850,
,,,10554.76673, -89.34850,
,,,10604.08807, -82.54850,
,,,10653.40941, -83.34850,
,,,10702.73075, -88.54850,
,,,10752.05209, -82.14850,
,,,10801.37343, -85.74850,
,,,10850.69477, -84.14850,
,,,10900.01611, -92.14850,
,,,10949.33745, -89.34850,
,,,10998.65879, -90.94850,
,,,11047.98013, -86.54850,
,,,11097.30147, -91.74850,
,,,11146.62281, -86.14850,
,,,11195.94415, -83.74850,
,,,11245.26549, -85.34850,
,,,11294.58683, -83.34850,
,,,11343.90817, -85.34850,
,,,11393.22951, -80.94850,
,,,11442.55085, -83.74850,
,,,11491.87219, -84.14850,
,,,11541.19353, -83.34850,
,,,11590.51487, -92.94850,
,,,11639.83621,-106.14850,
,,,11689.15755, -93.34850,
,,,11738.47889, -96.14850,
,,,11787.80023, -87.74850,
,,,11837.12157, -85.74850,
,,,11886.44291, -86.14850,
,,,11935.76425, -82.94850,
,,,11985.08559, -90.14850,
,,,12034.40693, -86.14850,
,,,12083.72827, -89.34850,
,,,12133.04961, -85.34850,
,,,12182.37095, -87.74850,
,,,12231.69229,-101.74850,
,,,12281.01363, -94.54850,
,,,12330.33497, -88.94850,
,,,12379.65631,-110.94850,
,,,12428.97765, -86.54850,
,,,12478.29899, -90.14850,
,,,12527.62033, -96.94850,
,,,12576.94167, -83.34850,
,,,12626.26301, -98.14850,
,,,12675.58435, -83.74850,
,,,12724.90569, -93.74850,
,,,12774.22703, -84.54850,
,,,12823.54837, -86.94850,
,,,12872.86971, -84.94850,
,,,12922.19105, -90.14850,
,,,12971.51239, -97.34850,
,,,13020.83373, -86.54850,
,,,13070.15507, -92.54850,
,,,13119.47641, -84.94850,
,,,13168.79775, -94.14850,
,,,13218.11909, -88.94850,
,,,13267.44043, -84.94850,
,,,13316.76177, -86.14850,
,,,13366.08311, -92.94850,
,,,13415.40445, -90.14850,
,,,13464.72579, -97.74850,
,,,13514.04713, -88.94850,
,,,13563.36847,-105.74850,
,,,13612.68981, -96.14850,
,,,13662.01115, -91.34850,
,,,13711.33249, -93.34850,
,,,13760.65383, -88.54850,
,,,13809.97517, -92.94850,
,,,13859.29651, -90.14850,
,,,13908.61785, -92.94850,
,,,13957.93919, -94.94850,
,,,14007.26053, -92.54850,
,,,14056.58187, -88.14850,
,,,14105.90321, -90.14850,
,,,14155.22455, -92.14850,
,,,14204.54589, -88.14850,
,,,14253.86723,-104.54850,
,,,14303.18857, -86.54850,
,,,14352.50991, -91.74850,
,,,14401.83125, -90.54850,
,,,14451.15259, -90.94850,
,,,14500.47393, -92.54850,
,,,14549.79527,-102.54850,
,,,14599.11661, -84.54850,
,,,14648.43795, -90.14850,
,,,14697.75929, -85.74850,
,,,14747.08063, -90.54850,
,,,14796.40197, -98.14850,
,,,14845.72331, -88.14850,
,,,14895.04465, -91.34850,
,,,14944.36599,-105.74850,
,,,14993.68733, -87.74850,
,,,15043.00867, -85.34850,
,,,15092.33001, -89.74850,
,,,15141.65135, -87.74850,
,,,15190.97269, -95.34850,
,,,15240.29403, -89.74850,
,,,15289.61537, -91.74850,
,,,15338.93671,-105.74850,
,,,15388.25805,-108.14850,
,,,15437.57939, -92.54850,
,,,15486.90073, -89.74850,
,,,15536.22207, -96.14850,
,,,15585.54341, -90.54850,
,,,15634.86475, -97.34850,
,,,15684.18609, -94.54850,
,,,15733.50743, -96.54850,
,,,15782.82877, -94.94850,
,,,15832.15011, -87.74850,
,,,15881.47145, -86.14850,
,,,15930.79279, -97.74850,
,,,15980.11413, -86.94850,
,,,16029.43547, -87.74850,
,,,16078.75681, -88.14850,
,,,16128.07815, -89.74850,
,,,16177.39949, -88.94850,
,,,16226.72083, -88.14850,
,,,16276.04217, -96.94850,
,,,16325.36351, -93.34850,
,,,16374.68485, -92.54850,
,,,16424.00619, -88.54850,
,,,16473.32753, -92.14850,
,,,16522.64887, -90.14850,
,,,16571.97021, -94.14850,
,,,16621.29155, -92.94850,
,,,16670.61289, -89.74850,
,,,16719.93423, -90.94850,
,,,16769.25557, -88.54850,
,,,16818.57691, -87.74850,
,,,16867.89825, -92.94850,
,,,16917.21959, -97.74850,
,,,16966.54093, -96.14850,
,,,17015.86227, -93.74850,
,,,17065.18361, -94.54850,
,,,17114.50495, -86.14850,
,,,17163.82629, -90.54850,
,,,17213.14763, -84.54850,
,,,17262.46897, -96.14850,
,,,17311.79031, -87.74850,
,,,17361.11165, -89.74850,
,,,17410.43299,-101.74850,
,,,17459.75433, -87.74850,
,,,17509.07567, -96.14850,
,,,17558.39701, -96.94850,
,,,17607.71835, -96.94850,
,,,17657.03969, -99.74850,
,,,17706.36103, -90.54850,
,,,17755.68237, -95.74850,
,,,17805.00371, -96.14850,
,,,17854.32505, -98.14850,
,,,17903.64639, -90.54850,
,,,17952.96773, -85.34850,
,,,18002.28907, -90.94850,
,,,18051.61041, -84.54850,
,,,18100.93175,-105.74850,
,,,18150.25309, -82.54850,
,,,18199.57443,-114.94850,
,,,18248.89577, -82.54850,
,,,18298.21711, -94.54850,
,,,18347.53845, -92.54850,
,,,18396.85979, -88.94850,
,,,18446.18113, -90.14850,
,,,18495.50247, -84.94850,
,,,18544.82381, -92.94850,
,,,18594.14515, -87.74850,
,,,18643.46649, -92.14850,
,,,18692.78783, -86.54850,
,,,18742.10917, -92.94850,
,,,18791.43051, -87.74850,
,,,18840.75185, -95.74850,
,,,18890.07319, -91.74850,
,,,18939.39453, -92.14850,
,,,18988.71587, -93.34850,
,,,19038.03721, -94.14850,
,,,19087.35855,-102.54850,
,,,19136.67989, -85.74850,
,,,19186.00123, -89.34850,
,,,19235.32257, -85.74850,
,,,19284.64391, -85.34850,
,,,19333.96525, -85.34850,
,,,19383.28659, -94.54850,
,,,19432.60793, -85.74850,
,,,19481.92927, -95.34850,
,,,19531.25061, -95.34850,
,,,19580.57195, -87.74850,
,,,19629.89329, -81.74850,
,,,19679.21463, -80.94850,
,,,19728.53597, -78.94850,
,,,19777.85731, -86.54850,
,,,19827.17865, -81.34850,
,,,19876.49999, -86.14850,
,,,19925.82133, -86.14850,
,,,19975.14267, -87.74850,
,,,20024.46401, -86.94850,
,,,20073.78535, -80.54850,
,,,20123.10669, -86.94850,
,,,20172.42803, -78.94850,
,,,20221.74937, -84.14850,
,,,20271.07071, -82.14850,
,,,20320.39205, -80.54850,
,,,20369.71339, -79.34850,
,,,20419.03473, -81.34850,
,,,20468.35607, -81.74850,
,,,20517.67741, -80.54850,
,,,20566.99875, -86.14850,
,,,20616.32009, -82.14850,
,,,20665.64143, -86.14850,
,,,20714.96277, -84.54850,
,,,20764.28411, -90.54850,
,,,20813.60545, -94.54850,
,,,20862.92679, -83.34850,
,,,20912.24813, -85.34850,
,,,20961.56947, -83.74850,
,,,21010.89081, -89.34850,
,,,21060.21215, -82.14850,
,,,21109.53349, -86.54850,
,,,21158.85483, -84.14850,
,,,21208.17617, -96.14850,
,,,21257.49751, -92.54850,
,,,21306.81885, -91.34850,
,,,21356.14019, -92.54850,
,,,21405.46153, -92.54850,
,,,21454.78287, -92.14850,
,,,21504.10421, -85.34850,
,,,21553.42555, -92.54850,
,,,21602.74689,-100.14850,
,,,21652.06823, -89.74850,
,,,21701.38957, -85.74850,
,,,21750.71091, -86.14850,
,,,21800.03225, -83.74850,
,,,21849.35359, -81.74850,
,,,21898.67493, -86.94850,
,,,21947.99627, -84.14850,
,,,21997.31761, -92.14850,
,,,22046.63895, -84.54850,
,,,22095.96029, -79.34850,
,,,22145.28163, -79.74850,
,,,22194.60297, -79.74850,
,,,22243.92431, -80.14850,
,,,22293.24565, -85.34850,
,,,22342.56699, -92.94850,
,,,22391.88833, -77.34850,
,,,22441.20967, -74.94850,
,,,22490.53101, -71.74850,
,,,22539.85235, -70.14850,
,,,22589.17369, -71.74850,
,,,22638.49503, -78.54850,
,,,22687.81637, -77.74850,
,,,22737.13771, -74.54850,
,,,22786.45905, -76.54850,
,,,22835.78039, -78.94850,
,,,22885.10173, -78.54850,
,,,22934.42307, -81.34850,
,,,22983.74441, -87.34850,
,,,23033.06575, -87.74850,
,,,23082.38709, -79.34850,
,,,23131.70843, -76.94850,
,,,23181.02977, -77.74850,
,,,23230.35111, -73.34850,
,,,23279.67245, -69.74850,
,,,23328.99379, -70.14850,
,,,23378.31513, -68.94850,
,,,23427.63647, -66.54850,
,,,23476.95781, -66.94850,
,,,23526.27915, -68.14850,
,,,23575.60049, -69.34850,
,,,23624.92183, -70.94850,
,,,23674.24317, -72.14850,
,,,23723.56451, -71.34850,
,,,23772.88585, -77.74850,
,,,23822.20719, -79.74850,
,,,23871.52853, -84.54850,
,,,23920.84987, -89.74850,
,,,23970.17121, -84.14850,
,,,24019.49255, -76.14850,
,,,24068.81389, -74.94850,
,,,24118.13523, -72.54850,
,,,24167.45657, -71.74850,
,,,24216.77791, -70.14850,
,,,24266.09925, -71.74850,
,,,24315.42059, -74.94850,
,,,24364.74193, -78.14850,
,,,24414.06327, -81.74850,
,,,24463.38461, -79.34850,
,,,24512.70595, -72.54850,
,,,24562.02729, -72.14850,
,,,24611.34863, -70.94850,
,,,24660.66997, -73.74850,
,,,24709.99131, -73.34850,
,,,24759.31265, -74.94850,
,,,24808.63399, -70.94850,
,,,24857.95533, -71.74850,
,,,24907.27667, -71.34850,
,,,24956.59801, -72.14850,
,,,25005.91935, -72.54850,
,,,25055.24069, -72.14850,
,,,25104.56203, -73.74850,
,,,25153.88337, -74.94850,
,,,25203.20471, -75.74850,
,,,25252.52605, -75.34850,
,,,25301.84739, -71.34850,
,,,25351.16873, -71.34850,
,,,25400.49007, -72.94850,
,,,25449.81141, -71.34850,
,,,25499.13275, -69.74850,
,,,25548.45409, -72.94850,
,,,25597.77543, -72.54850,
,,,25647.09677, -74.14850,
,,,25696.41811, -74.14850,
,,,25745.73945, -76.94850,
,,,25795.06079, -77.34850,
,,,25844.38213, -76.94850,
,,,25893.70347, -74.14850,
,,,25943.02481, -72.14850,
,,,25992.34615, -74.94850,
,,,26041.66749, -74.14850,
,,,26090.98883, -74.14850,
,,,26140.31017, -75.74850,
,,,26189.63151, -78.54850,
,,,26238.95285, -80.14850,
,,,26288.27419, -79.74850,
,,,26337.59553, -84.54850,
,,,26386.91687, -80.94850,
,,,26436.23821, -91.74850,
,,,26485.55955, -97.74850,
,,,26534.88089, -86.54850,
,,,26584.20223, -83.34850,
,,,26633.52357, -84.54850,
,,,26682.84491, -86.94850,
,,,26732.16625, -91.74850,
,,,26781.48759, -84.94850,
,,,26830.80893, -88.94850,
,,,26880.13027, -97.34850,
,,,26929.45161,-102.14850,
,,,26978.77295, -87.34850,
,,,27028.09429, -88.14850,
,,,27077.41563, -90.94850,
,,,27126.73697, -88.14850,
,,,27176.05831, -96.54850,
,,,27225.37965, -84.14850,
,,,27274.70099, -88.14850,
,,,27324.02233, -83.74850,
,,,27373.34367, -88.54850,
,,,27422.66501, -89.34850,
,,,27471.98635, -86.14850,
,,,27521.30769, -80.14850,
,,,27570.62903, -95.34850,
,,,27619.95037, -93.34850,
,,,27669.27171, -83.34850,
,,,27718.59305,-101.74850,
,,,27767.91439, -84.14850,
,,,27817.23573, -84.14850,
,,,27866.55707, -85.34850,
,,,27915.87841, -91.74850,
,,,27965.19975, -76.54850,
,,,28014.52109, -79.74850,
,,,28063.84243, -89.34850,
,,,28113.16377, -83.34850,
,,,28162.48511, -86.94850,
,,,28211.80645, -83.74850,
,,,28261.12779, -78.14850,
,,,28310.44913, -88.54850,
,,,28359.77047, -88.54850,
,,,28409.09181, -77.34850,
,,,28458.41315, -95.34850,
,,,28507.73449, -80.14850,
,,,28557.05583, -78.14850,
,,,28606.37717, -77.34850,
,,,28655.69851, -76.54850,
,,,28705.01985, -82.54850,
,,,28754.34119, -81.74850,
,,,28803.66253, -78.94850,
,,,28852.98387, -86.14850,
,,,28902.30521, -82.94850,
,,,28951.62655, -81.34850,
,,,29000.94789, -81.74850,
,,,29050.26923, -82.54850,
,,,29099.59057, -90.14850,
,,,29148.91191, -86.14850,
,,,29198.23325, -82.14850,
,,,29247.55459, -92.14850,
,,,29296.87593, -86.94850,
,,,29346.19727, -89.74850,
,,,29395.51861, -86.54850,
,,,29444.83995, -84.14850,
,,,29494.16129, -84.94850,
,,,29543.48263, -86.54850,
,,,29592.80397, -83.74850,
,,,29642.12531, -83.74850,
,,,29691.44665, -89.74850,
,,,29740.76799, -86.14850,
,,,29790.08933, -86.94850,
,,,29839.41067, -83.74850,
,,,29888.73201, -92.94850,
,,,29938.05335, -86.14850,
,,,29987.37469, -84.14850,
,,,30036.69603, -92.94850,
,,,30086.01737, -96.54850,
,,,30135.33871, -85.34850,
,,,30184.66005, -81.74850,
,,,30233.98139, -87.34850,
,,,30283.30273, -90.14850,
,,,30332.62407, -84.14850,
,,,30381.94541, -82.14850,
,,,30431.26675, -91.34850,
,,,30480.58809, -84.54850,
,,,30529.90943, -89.34850,
,,,30579.23077, -92.94850,
,,,30628.55211, -92.14850,
,,,30677.87345, -86.14850,
,,,30727.19479, -84.14850,
,,,30776.51613, -92.54850,
,,,30825.83747, -82.14850,
,,,30875.15881, -88.94850,
,,,30924.48015,-100.54850,
,,,30973.80149, -89.34850,
,,,31023.12283, -82.14850,
,,,31072.44417, -92.14850,
,,,31121.76551, -84.94850,
,,,31171.08685, -87.74850,
,,,31220.40819, -85.34850,
,,,31269.72953, -85.34850,
,,,31319.05087, -92.94850,
,,,31368.37221, -79.74850,
,,,31417.69355, -84.54850,
,,,31467.01489, -81.74850,
,,,31516.33623, -84.14850,
,,,31565.65757, -79.34850,
,,,31614.97891, -83.34850,
,,,31664.30025, -86.54850,
,,,31713.62159,-104.54850,
,,,31762.94293, -80.94850,
,,,31812.26427, -88.54850,
,,,31861.58561, -78.94850,
,,,31910.90695, -93.74850,
,,,31960.22829, -88.54850,
,,,32009.54963, -85.74850,
,,,32058.87097, -86.54850,
,,,32108.19231, -83.34850,
,,,32157.51365, -82.54850,
,,,32206.83499, -82.94850,
,,,32256.15633, -84.54850,
,,,32305.47767, -83.34850,
,,,32354.79901, -78.54850,
,,,32404.12035, -88.14850,
,,,32453.44169, -84.14850,
,,,32502.76303, -82.94850,
,,,32552.08437, -77.74850,
,,,32601.40571, -78.54850,
,,,32650.72705, -73.34850,
,,,32700.04839, -71.74850,
,,,32749.36973, -70.94850,
,,,32798.69107, -73.74850,
,,,32848.01241, -74.94850,
,,,32897.33375, -73.34850,
,,,32946.65509, -72.54850,
,,,32995.97643, -68.54850,
,,,33045.29777, -72.14850,
,,,33094.61911, -67.74850,
,,,33143.94045, -70.14850,
,,,33193.26179, -69.74850,
,,,33242.58313, -70.14850,
,,,33291.90447, -74.14850,
,,,33341.22581, -68.54850,
,,,33390.54715, -70.54850,
,,,33439.86849, -70.14850,
,,,33489.18983, -70.54850,
,,,33538.51117, -72.94850,
,,,33587.83251, -69.74850,
,,,33637.15385, -71.74850,
,,,33686.47519, -68.94850,
,,,33735.79653, -73.34850,
,,,33785.11787, -69.34850,
,,,33834.43921, -71.34850,
,,,33883.76055, -69.74850,
,,,33933.08189, -69.34850,
,,,33982.40323, -70.14850,
,,,34031.72457, -70.14850,
,,,34081.04591, -72.94850,
,,,34130.36725, -67.34850,
,,,34179.68859, -68.54850,
,,,34229.00993, -66.54850,
,,,34278.33127, -68.94850,
,,,34327.65261, -70.54850,
,,,34376.97395, -72.14850,
,,,34426.29529, -71.74850,
,,,34475.61663, -71.34850,
,,,34524.93797, -72.54850,
,,,34574.25931, -70.54850,
,,,34623.58065, -73.34850,
,,,34672.90199, -70.94850,
,,,34722.22333, -75.34850,
,,,34771.54467, -77.34850,
,,,34820.86601, -75.34850,
,,,34870.18735, -73.34850,
,,,34919.50869, -66.54850,
,,,34968.83003, -67.34850,
,,,35018.15137, -70.94850,
,,,35067.47271, -76.54850,
,,,35116.79405, -88.54850,
,,,35166.11539, -76.14850,
,,,35215.43673, -79.74850,
,,,35264.75807, -76.54850,
,,,35314.07941, -75.34850,
,,,35363.40075, -71.74850,
,,,35412.72209, -75.34850,
,,,35462.04343, -74.94850,
,,,35511.36477, -77.34850,
,,,35560.68611, -72.14850,
,,,35610.00745, -70.14850,
,,,35659.32879, -71.74850,
,,,35708.65013, -73.74850,
,,,35757.97147, -70.14850,
,,,35807.29281, -72.14850,
,,,35856.61415, -68.14850,
,,,35905.93549, -71.74850,
,,,35955.25683, -74.14850,
,,,36004.57817, -86.54850,
