Logiciel & Hardware/FFT_piezo_Test/Nain/Poche1/F0007MTH.CSV

Record Length,1.024000e+03,,          0.00000, -79.78970,
Sample Interval,4.932134e+01,,         49.32134, -67.38970,
Trigger Point,0.000000000000e+00,,         98.64268, -65.38970,
,,,        147.96402, -78.98970,
,,,        197.28535, -92.18970,
,,,        246.60669, -90.98970,
Source,MATH,,        295.92803,-102.98970,
Vertical Units,dB,,        345.24937, -92.18970,
Vertical Scale,1.000000e+01,,        394.57071, -93.78970,
Vertical Offset,0.000000e+00,,        443.89205,-105.78970,
Horizontal Units,Hz,,        493.21338, -94.18970,
Horizontal Scale,5.050505e+03,,        542.53472, -97.38970,
Pt Fmt,Y,,        591.85606,-102.98970,
Yzero,-6.698970e+01,,        641.17740,-101.78970,
Probe Atten,1.000000e+00,,        690.49874,-103.38970,
Model Number,TDS2012B,,        739.82008, -92.18970,
Serial Number,C103583,,        789.14141, -90.18970,
Firmware Version,FV:v22.11,,        838.46275, -91.38970,
,,,887.78409, -98.98970,
,,,937.10543,-101.78970,
,,,986.42677,-105.78970,
,,,1035.74811,-106.98970,
,,,1085.06945,-100.58970,
,,,1134.39079,-102.98970,
,,,1183.71213,-103.78970,
,,,1233.03347,-102.98970,
,,,1282.35481,-100.98970,
,,,1331.67615, -97.38970,
,,,1380.99749, -94.98970,
,,,1430.31883, -95.38970,
,,,1479.64017, -96.18970,
,,,1528.96151, -95.78970,
,,,1578.28285,-105.78970,
,,,1627.60419, -94.98970,
,,,1676.92553, -92.18970,
,,,1726.24687, -98.98970,
,,,1775.56821, -97.78970,
,,,1824.88955, -92.98970,
,,,1874.21089, -98.98970,
,,,1923.53223, -98.98970,
,,,1972.85357, -93.38970,
,,,2022.17491, -95.38970,
,,,2071.49625,-103.38970,
,,,2120.81759, -95.38970,
,,,2170.13893, -98.18970,
,,,2219.46027, -99.78970,
,,,2268.78161, -92.98970,
,,,2318.10295, -92.58970,
,,,2367.42429, -95.78970,
,,,2416.74563, -98.98970,
,,,2466.06697, -97.78970,
,,,2515.38831, -99.78970,
,,,2564.70965,-105.78970,
,,,2614.03099, -94.18970,
,,,2663.35233, -96.98970,
,,,2712.67367, -92.58970,
,,,2761.99501, -92.58970,
,,,2811.31635, -95.78970,
,,,2860.63769, -95.78970,
,,,2909.95903, -88.58970,
,,,2959.28037, -89.38970,
,,,3008.60171, -91.78970,
,,,3057.92305, -92.18970,
,,,3107.24439, -90.18970,
,,,3156.56573, -91.38970,
,,,3205.88707, -96.98970,
,,,3255.20841, -98.98970,
,,,3304.52975, -98.18970,
,,,3353.85109, -96.98970,
,,,3403.17243, -97.78970,
,,,3452.49377, -95.38970,
,,,3501.81511, -92.18970,
,,,3551.13645, -94.58970,
,,,3600.45779,-105.78970,
,,,3649.77913, -98.98970,
,,,3699.10047, -97.78970,
,,,3748.42181,-106.98970,
,,,3797.74315, -97.78970,
,,,3847.06449,-100.98970,
,,,3896.38583, -98.98970,
,,,3945.70717, -97.78970,
,,,3995.02851,-101.78970,
,,,4044.34985, -94.18970,
,,,4093.67119, -96.98970,
,,,4142.99253, -99.78970,
,,,4192.31387, -98.98970,
,,,4241.63521, -93.78970,
,,,4290.95655, -92.18970,
,,,4340.27789, -99.78970,
,,,4389.59923, -90.18970,
,,,4438.92057, -91.38970,
,,,4488.24191,-103.78970,
,,,4537.56325,-106.98970,
,,,4586.88459, -97.78970,
,,,4636.20593, -98.98970,
,,,4685.52727,-105.78970,
,,,4734.84861, -95.78970,
,,,4784.16995, -92.18970,
,,,4833.49129, -93.38970,
,,,4882.81263, -94.98970,
,,,4932.13397,-102.98970,
,,,4981.45531,-102.98970,
,,,5030.77665, -96.58970,
,,,5080.09799, -95.78970,
,,,5129.41933, -93.78970,
,,,5178.74067, -94.18970,
,,,5228.06201, -96.58970,
,,,5277.38335, -92.18970,
,,,5326.70469, -94.58970,
,,,5376.02603, -93.78970,
,,,5425.34737,-100.58970,
,,,5474.66871,-106.98970,
,,,5523.99005, -97.38970,
,,,5573.31139, -95.38970,
,,,5622.63273, -98.98970,
,,,5671.95407, -96.98970,
,,,5721.27541, -95.38970,
,,,5770.59675, -98.98970,
,,,5819.91809,-106.98970,
,,,5869.23943, -98.18970,
,,,5918.56077, -95.38970,
,,,5967.88211,-106.98970,
,,,6017.20345, -91.78970,
,,,6066.52479, -87.78970,
,,,6115.84613, -93.78970,
,,,6165.16747, -98.18970,
,,,6214.48881, -93.78970,
,,,6263.81015, -93.78970,
,,,6313.13149, -97.38970,
,,,6362.45283, -99.78970,
,,,6411.77417, -94.98970,
,,,6461.09551, -91.38970,
,,,6510.41685, -92.18970,
,,,6559.73819, -91.38970,
,,,6609.05953, -97.38970,
,,,6658.38087, -99.78970,
,,,6707.70221, -98.18970,
,,,6757.02355,-100.58970,
,,,6806.34489,-100.98970,
,,,6855.66623, -93.38970,
,,,6904.98757, -90.18970,
,,,6954.30891, -88.98970,
,,,7003.63025, -92.58970,
,,,7052.95159, -97.38970,
,,,7102.27293,-102.98970,
,,,7151.59427,-102.98970,
,,,7200.91561,-105.78970,
,,,7250.23695,-103.78970,
,,,7299.55829, -94.98970,
,,,7348.87963, -95.78970,
,,,7398.20097,-102.98970,
,,,7447.52231,-101.78970,
,,,7496.84365, -94.98970,
,,,7546.16499, -90.98970,
,,,7595.48633, -95.78970,
,,,7644.80767,-106.98970,
,,,7694.12901, -95.38970,
,,,7743.45035, -90.98970,
,,,7792.77169, -92.98970,
,,,7842.09303,-100.58970,
,,,7891.41437, -95.78970,
,,,7940.73571,-105.78970,
,,,7990.05705,-106.98970,
,,,8039.37839, -98.98970,
,,,8088.69973, -97.78970,
,,,8138.02107, -98.98970,
,,,8187.34241,-102.98970,
,,,8236.66375, -93.78970,
,,,8285.98509, -94.98970,
,,,8335.30643, -98.98970,
,,,8384.62777, -95.38970,
,,,8433.94911, -92.18970,
,,,8483.27045, -89.78970,
,,,8532.59179, -91.78970,
,,,8581.91313, -98.98970,
,,,8631.23447, -98.98970,
,,,8680.55581,-101.78970,
,,,8729.87715,-102.98970,
,,,8779.19849, -93.78970,
,,,8828.51983, -95.78970,
,,,8877.84117, -98.98970,
,,,8927.16251, -90.58970,
,,,8976.48385, -94.58970,
,,,9025.80519,-105.78970,
,,,9075.12653, -96.58970,
,,,9124.44787, -93.78970,
,,,9173.76921,-106.98970,
,,,9223.09055, -98.18970,
,,,9272.41189, -96.98970,
,,,9321.73323, -91.78970,
,,,9371.05457, -98.98970,
,,,9420.37591, -99.78970,
,,,9469.69725,-106.98970,
,,,9519.01859, -92.18970,
,,,9568.33993, -89.38970,
,,,9617.66127, -98.98970,
,,,9666.98261,-106.98970,
,,,9716.30395,-100.58970,
,,,9765.62529, -98.98970,
,,,9814.94663, -96.58970,
,,,9864.26797, -95.78970,
,,,9913.58931,-103.78970,
,,,9962.91065, -98.18970,
,,,10012.23199, -96.98970,
,,,10061.55333,-105.78970,
,,,10110.87467, -98.98970,
,,,10160.19601, -98.18970,
,,,10209.51735,-101.78970,
,,,10258.83869,-102.98970,
,,,10308.16003,-101.78970,
,,,10357.48137, -94.58970,
,,,10406.80271,-100.58970,
,,,10456.12405, -95.38970,
,,,10505.44539, -95.78970,
,,,10554.76673, -95.78970,
,,,10604.08807,-100.58970,
,,,10653.40941,-106.98970,
,,,10702.73075,-106.98970,
,,,10752.05209, -98.98970,
,,,10801.37343,-100.58970,
,,,10850.69477,-105.78970,
,,,10900.01611,-100.58970,
,,,10949.33745, -99.78970,
,,,10998.65879,-105.78970,
,,,11047.98013,-100.58970,
,,,11097.30147, -95.78970,
,,,11146.62281, -99.78970,
,,,11195.94415, -98.98970,
,,,11245.26549, -91.78970,
,,,11294.58683, -94.18970,
,,,11343.90817,-106.98970,
,,,11393.22951, -94.98970,
,,,11442.55085, -98.98970,
,,,11491.87219, -92.58970,
,,,11541.19353, -89.38970,
,,,11590.51487, -94.98970,
,,,11639.83621, -96.58970,
,,,11689.15755, -90.98970,
,,,11738.47889, -89.78970,
,,,11787.80023, -95.78970,
,,,11837.12157,-103.78970,
,,,11886.44291, -96.58970,
,,,11935.76425, -88.98970,
,,,11985.08559, -92.58970,
,,,12034.40693,-100.58970,
,,,12083.72827, -95.78970,
,,,12133.04961,-102.98970,
,,,12182.37095, -94.98970,
,,,12231.69229, -88.18970,
,,,12281.01363, -92.18970,
,,,12330.33497,-100.58970,
,,,12379.65631, -93.38970,
,,,12428.97765,-105.78970,
,,,12478.29899,-105.78970,
,,,12527.62033, -94.58970,
,,,12576.94167,-100.98970,
,,,12626.26301, -99.78970,
,,,12675.58435, -98.98970,
,,,12724.90569,-106.98970,
,,,12774.22703, -99.78970,
,,,12823.54837,-106.98970,
,,,12872.86971,-103.38970,
,,,12922.19105,-100.58970,
,,,12971.51239,-106.98970,
,,,13020.83373, -93.78970,
,,,13070.15507, -93.38970,
,,,13119.47641, -96.98970,
,,,13168.79775,-106.98970,
,,,13218.11909, -95.78970,
,,,13267.44043, -92.58970,
,,,13316.76177, -93.78970,
,,,13366.08311,-102.98970,
,,,13415.40445,-103.38970,
,,,13464.72579,-106.98970,
,,,13514.04713,-101.78970,
,,,13563.36847, -96.98970,
,,,13612.68981, -93.38970,
,,,13662.01115, -91.78970,
,,,13711.33249, -98.18970,
,,,13760.65383, -92.58970,
,,,13809.97517, -92.18970,
,,,13859.29651, -96.98970,
,,,13908.61785, -90.58970,
,,,13957.93919, -88.98970,
,,,14007.26053, -89.78970,
,,,14056.58187,-100.58970,
,,,14105.90321,-106.98970,
,,,14155.22455, -99.78970,
,,,14204.54589, -94.98970,
,,,14253.86723, -95.78970,
,,,14303.18857, -97.78970,
,,,14352.50991, -92.98970,
,,,14401.83125, -90.18970,
,,,14451.15259, -93.78970,
,,,14500.47393, -92.18970,
,,,14549.79527, -92.98970,
,,,14599.11661,-106.98970,
,,,14648.43795,-100.98970,
,,,14697.75929, -99.78970,
,,,14747.08063, -96.98970,
,,,14796.40197, -97.78970,
,,,14845.72331,-100.58970,
,,,14895.04465, -95.78970,
,,,14944.36599, -97.38970,
,,,14993.68733, -94.98970,
,,,15043.00867,-101.78970,
,,,15092.33001,-103.78970,
,,,15141.65135,-105.78970,
,,,15190.97269, -96.98970,
,,,15240.29403, -98.98970,
,,,15289.61537, -99.78970,
,,,15338.93671, -97.78970,
,,,15388.25805, -94.18970,
,,,15437.57939, -92.98970,
,,,15486.90073, -98.98970,
,,,15536.22207, -92.18970,
,,,15585.54341, -89.38970,
,,,15634.86475, -92.18970,
,,,15684.18609,-100.58970,
,,,15733.50743, -90.58970,
,,,15782.82877, -92.98970,
,,,15832.15011, -89.78970,
,,,15881.47145, -90.98970,
,,,15930.79279, -98.98970,
,,,15980.11413, -98.98970,
,,,16029.43547, -88.58970,
,,,16078.75681, -90.18970,
,,,16128.07815,-103.38970,
,,,16177.39949,-106.98970,
,,,16226.72083,-106.98970,
,,,16276.04217, -94.98970,
,,,16325.36351, -94.98970,
,,,16374.68485, -98.98970,
,,,16424.00619, -95.38970,
,,,16473.32753, -91.78970,
,,,16522.64887, -90.58970,
,,,16571.97021, -96.98970,
,,,16621.29155, -94.98970,
,,,16670.61289, -91.78970,
,,,16719.93423, -92.18970,
,,,16769.25557, -98.18970,
,,,16818.57691, -97.78970,
,,,16867.89825, -95.78970,
,,,16917.21959, -94.98970,
,,,16966.54093, -94.98970,
,,,17015.86227, -92.98970,
,,,17065.18361, -97.78970,
,,,17114.50495, -98.98970,
,,,17163.82629,-100.98970,
,,,17213.14763, -98.98970,
,,,17262.46897, -93.78970,
,,,17311.79031, -96.98970,
,,,17361.11165,-103.38970,
,,,17410.43299, -96.98970,
,,,17459.75433, -95.78970,
,,,17509.07567, -92.18970,
,,,17558.39701, -99.78970,
,,,17607.71835, -95.38970,
,,,17657.03969, -92.98970,
,,,17706.36103, -95.38970,
,,,17755.68237,-105.78970,
,,,17805.00371,-100.58970,
,,,17854.32505, -92.98970,
,,,17903.64639, -96.98970,
,,,17952.96773,-103.78970,
,,,18002.28907,-102.98970,
,,,18051.61041, -96.58970,
,,,18100.93175,-100.98970,
,,,18150.25309, -91.78970,
,,,18199.57443, -92.98970,
,,,18248.89577, -94.98970,
,,,18298.21711,-106.98970,
,,,18347.53845,-103.78970,
,,,18396.85979, -95.78970,
,,,18446.18113, -92.98970,
,,,18495.50247, -90.58970,
,,,18544.82381, -93.78970,
,,,18594.14515, -97.38970,
,,,18643.46649, -97.78970,
,,,18692.78783, -97.38970,
,,,18742.10917,-106.98970,
,,,18791.43051, -96.98970,
,,,18840.75185,-100.98970,
,,,18890.07319, -92.58970,
,,,18939.39453, -92.58970,
,,,18988.71587, -96.58970,
,,,19038.03721,-103.78970,
,,,19087.35855,-100.58970,
,,,19136.67989, -98.18970,
,,,19186.00123,-102.98970,
,,,19235.32257, -99.78970,
,,,19284.64391,-101.78970,
,,,19333.96525, -98.98970,
,,,19383.28659,-102.98970,
,,,19432.60793,-100.58970,
,,,19481.92927,-100.58970,
,,,19531.25061, -98.98970,
,,,19580.57195,-106.98970,
,,,19629.89329, -94.18970,
,,,19679.21463,-101.78970,
,,,19728.53597, -94.98970,
,,,19777.85731, -92.98970,
,,,19827.17865, -95.78970,
,,,19876.49999, -95.78970,
,,,19925.82133, -95.38970,
,,,19975.14267, -99.78970,
,,,20024.46401, -94.18970,
,,,20073.78535, -90.18970,
,,,20123.10669, -88.98970,
,,,20172.42803, -89.78970,
,,,20221.74937, -89.78970,
,,,20271.07071, -86.58970,
,,,20320.39205, -87.78970,
,,,20369.71339, -89.78970,
,,,20419.03473, -91.78970,
,,,20468.35607, -97.78970,
,,,20517.67741, -92.58970,
,,,20566.99875, -88.98970,
,,,20616.32009, -90.98970,
,,,20665.64143, -88.58970,
,,,20714.96277, -88.98970,
,,,20764.28411, -90.98970,
,,,20813.60545, -88.18970,
,,,20862.92679, -91.38970,
,,,20912.24813, -91.38970,
,,,20961.56947, -93.78970,
,,,21010.89081, -92.98970,
,,,21060.21215, -88.18970,
,,,21109.53349, -86.98970,
,,,21158.85483, -97.78970,
,,,21208.17617, -92.58970,
,,,21257.49751, -92.58970,
,,,21306.81885, -97.78970,
,,,21356.14019, -94.18970,
,,,21405.46153, -91.78970,
,,,21454.78287, -86.98970,
,,,21504.10421, -90.58970,
,,,21553.42555, -88.98970,
,,,21602.74689, -86.58970,
,,,21652.06823, -88.98970,
,,,21701.38957, -92.58970,
,,,21750.71091, -94.58970,
,,,21800.03225, -97.78970,
,,,21849.35359,-100.98970,
,,,21898.67493, -93.78970,
,,,21947.99627, -89.78970,
,,,21997.31761, -93.78970,
,,,22046.63895, -89.78970,
,,,22095.96029, -92.98970,
,,,22145.28163, -99.78970,
,,,22194.60297, -91.78970,
,,,22243.92431, -94.98970,
,,,22293.24565, -89.38970,
,,,22342.56699, -90.18970,
,,,22391.88833, -90.58970,
,,,22441.20967, -86.98970,
,,,22490.53101, -94.98970,
,,,22539.85235, -95.78970,
,,,22589.17369, -92.58970,
,,,22638.49503, -97.78970,
,,,22687.81637, -93.78970,
,,,22737.13771, -89.38970,
,,,22786.45905, -89.78970,
,,,22835.78039,-100.58970,
,,,22885.10173, -92.18970,
,,,22934.42307, -91.78970,
,,,22983.74441, -91.38970,
,,,23033.06575, -96.58970,
,,,23082.38709,-102.98970,
,,,23131.70843, -88.98970,
,,,23181.02977, -88.58970,
,,,23230.35111, -94.58970,
,,,23279.67245,-102.98970,
,,,23328.99379, -98.98970,
,,,23378.31513, -92.58970,
,,,23427.63647, -92.18970,
,,,23476.95781, -93.78970,
,,,23526.27915, -92.98970,
,,,23575.60049,-100.58970,
,,,23624.92183, -93.78970,
,,,23674.24317, -89.38970,
,,,23723.56451, -89.38970,
,,,23772.88585, -97.38970,
,,,23822.20719, -94.58970,
,,,23871.52853, -91.38970,
,,,23920.84987,-103.78970,
,,,23970.17121, -90.58970,
,,,24019.49255, -93.38970,
,,,24068.81389, -98.98970,
,,,24118.13523, -93.78970,
,,,24167.45657, -91.38970,
,,,24216.77791, -88.58970,
,,,24266.09925, -93.78970,
,,,24315.42059, -89.78970,
,,,24364.74193, -88.18970,
,,,24414.06327, -92.58970,
,,,24463.38461,-103.78970,
,,,24512.70595, -90.98970,
,,,24562.02729, -90.98970,
,,,24611.34863,-100.58970,
,,,24660.66997, -93.78970,
,,,24709.99131, -92.58970,
,,,24759.31265, -90.58970,
,,,24808.63399, -90.18970,
,,,24857.95533,-106.98970,
,,,24907.27667,-103.78970,
,,,24956.59801, -93.78970,
,,,25005.91935, -93.78970,
,,,25055.24069, -90.98970,
,,,25104.56203, -92.98970,
,,,25153.88337, -88.98970,
,,,25203.20471, -89.38970,
,,,25252.52605, -98.98970,
,,,25301.84739,-102.98970,
,,,25351.16873, -98.98970,
,,,25400.49007, -96.98970,
,,,25449.81141, -94.18970,
,,,25499.13275, -95.78970,
,,,25548.45409,-102.98970,
,,,25597.77543, -99.78970,
,,,25647.09677, -98.98970,
,,,25696.41811,-106.98970,
,,,25745.73945, -92.18970,
,,,25795.06079, -93.78970,
,,,25844.38213,-105.78970,
,,,25893.70347,-103.78970,
,,,25943.02481, -93.38970,
,,,25992.34615, -92.58970,
,,,26041.66749,-103.78970,
,,,26090.98883, -93.78970,
,,,26140.31017, -92.18970,
,,,26189.63151, -90.18970,
,,,26238.95285, -90.58970,
,,,26288.27419, -95.78970,
,,,26337.59553,-102.98970,
,,,26386.91687, -93.78970,
,,,26436.23821, -90.58970,
,,,26485.55955, -92.18970,
,,,26534.88089, -89.78970,
,,,26584.20223, -91.78970,
,,,26633.52357, -95.78970,
,,,26682.84491, -92.18970,
,,,26732.16625, -95.78970,
,,,26781.48759, -99.78970,
,,,26830.80893, -95.78970,
,,,26880.13027,-106.98970,
,,,26929.45161,-106.98970,
,,,26978.77295,-106.98970,
,,,27028.09429,-102.98970,
,,,27077.41563, -92.98970,
,,,27126.73697, -93.78970,
,,,27176.05831, -97.38970,
,,,27225.37965, -96.58970,
,,,27274.70099,-103.38970,
,,,27324.02233, -95.38970,
,,,27373.34367, -90.98970,
,,,27422.66501, -93.78970,
,,,27471.98635, -93.38970,
,,,27521.30769, -92.58970,
,,,27570.62903, -88.18970,
,,,27619.95037, -94.18970,
,,,27669.27171, -92.58970,
,,,27718.59305, -92.18970,
,,,27767.91439, -98.18970,
,,,27817.23573, -94.98970,
,,,27866.55707, -94.58970,
,,,27915.87841, -96.98970,
,,,27965.19975, -89.78970,
,,,28014.52109, -92.18970,
,,,28063.84243,-101.78970,
,,,28113.16377, -92.18970,
,,,28162.48511,-101.78970,
,,,28211.80645, -89.38970,
,,,28261.12779, -92.58970,
,,,28310.44913,-103.78970,
,,,28359.77047,-100.98970,
,,,28409.09181, -96.98970,
,,,28458.41315, -93.38970,
,,,28507.73449, -90.18970,
,,,28557.05583, -92.18970,
,,,28606.37717, -96.58970,
,,,28655.69851, -91.78970,
,,,28705.01985,-106.98970,
,,,28754.34119,-102.98970,
,,,28803.66253,-100.58970,
,,,28852.98387, -88.98970,
,,,28902.30521, -89.38970,
,,,28951.62655, -98.18970,
,,,29000.94789,-106.98970,
,,,29050.26923,-101.78970,
,,,29099.59057,-102.98970,
,,,29148.91191, -92.18970,
,,,29198.23325, -88.98970,
,,,29247.55459, -96.98970,
,,,29296.87593,-100.98970,
,,,29346.19727, -94.98970,
,,,29395.51861, -94.58970,
,,,29444.83995,-105.78970,
,,,29494.16129,-103.38970,
,,,29543.48263, -99.78970,
,,,29592.80397,-100.58970,
,,,29642.12531, -95.78970,
,,,29691.44665, -96.58970,
,,,29740.76799,-106.98970,
,,,29790.08933, -96.98970,
,,,29839.41067, -89.38970,
,,,29888.73201, -91.38970,
,,,29938.05335, -95.38970,
,,,29987.37469,-101.78970,
,,,30036.69603,-106.98970,
,,,30086.01737,-103.38970,
,,,30135.33871,-101.78970,
,,,30184.66005, -91.78970,
,,,30233.98139, -90.18970,
,,,30283.30273, -87.78970,
,,,30332.62407, -89.38970,
,,,30381.94541, -90.18970,
,,,30431.26675, -86.98970,
,,,30480.58809, -87.78970,
,,,30529.90943, -94.98970,
,,,30579.23077, -99.78970,
,,,30628.55211, -93.78970,
,,,30677.87345, -92.18970,
,,,30727.19479, -91.78970,
,,,30776.51613,-102.98970,
,,,30825.83747,-105.78970,
,,,30875.15881, -96.98970,
,,,30924.48015,-103.38970,
,,,30973.80149, -98.98970,
,,,31023.12283, -99.78970,
,,,31072.44417, -98.98970,
,,,31121.76551, -93.38970,
,,,31171.08685, -98.18970,
,,,31220.40819,-105.78970,
,,,31269.72953, -92.18970,
,,,31319.05087, -82.98970,
,,,31368.37221, -82.18970,
,,,31417.69355, -92.18970,
,,,31467.01489, -90.18970,
,,,31516.33623, -85.78970,
,,,31565.65757, -88.18970,
,,,31614.97891, -97.78970,
,,,31664.30025, -92.98970,
,,,31713.62159, -92.18970,
,,,31762.94293, -89.38970,
,,,31812.26427, -86.98970,
,,,31861.58561, -90.98970,
,,,31910.90695, -90.98970,
,,,31960.22829, -92.18970,
,,,32009.54963, -96.58970,
,,,32058.87097, -89.38970,
,,,32108.19231, -97.38970,
,,,32157.51365, -88.98970,
,,,32206.83499, -91.78970,
,,,32256.15633, -91.78970,
,,,32305.47767, -90.18970,
,,,32354.79901,-106.98970,
,,,32404.12035, -89.38970,
,,,32453.44169, -94.58970,
,,,32502.76303, -96.98970,
,,,32552.08437,-106.98970,
,,,32601.40571, -98.98970,
,,,32650.72705, -96.58970,
,,,32700.04839, -97.78970,
,,,32749.36973,-100.98970,
,,,32798.69107, -96.58970,
,,,32848.01241, -96.98970,
,,,32897.33375, -96.18970,
,,,32946.65509, -92.18970,
,,,32995.97643, -94.18970,
,,,33045.29777, -95.78970,
,,,33094.61911, -91.38970,
,,,33143.94045, -99.78970,
,,,33193.26179, -95.38970,
,,,33242.58313,-106.98970,
,,,33291.90447, -89.78970,
,,,33341.22581, -85.78970,
,,,33390.54715, -95.78970,
,,,33439.86849, -92.98970,
,,,33489.18983, -94.58970,
,,,33538.51117, -90.98970,
,,,33587.83251, -92.18970,
,,,33637.15385, -92.18970,
,,,33686.47519,-101.78970,
,,,33735.79653,-106.98970,
,,,33785.11787,-101.78970,
,,,33834.43921, -94.98970,
,,,33883.76055, -90.98970,
,,,33933.08189, -89.78970,
,,,33982.40323, -90.18970,
,,,34031.72457, -94.18970,
,,,34081.04591, -89.78970,
,,,34130.36725, -94.58970,
,,,34179.68859, -97.38970,
,,,34229.00993, -92.98970,
,,,34278.33127,-101.78970,
,,,34327.65261, -92.18970,
,,,34376.97395, -88.18970,
,,,34426.29529, -91.38970,
,,,34475.61663, -93.78970,
,,,34524.93797, -97.38970,
,,,34574.25931, -92.18970,
,,,34623.58065, -93.38970,
,,,34672.90199, -94.98970,
,,,34722.22333, -94.98970,
,,,34771.54467, -91.78970,
,,,34820.86601, -97.78970,
,,,34870.18735, -91.78970,
,,,34919.50869, -95.78970,
,,,34968.83003, -98.98970,
,,,35018.15137, -96.58970,
,,,35067.47271,-100.58970,
,,,35116.79405, -93.38970,
,,,35166.11539, -88.18970,
,,,35215.43673, -91.38970,
,,,35264.75807, -95.78970,
,,,35314.07941, -86.58970,
,,,35363.40075, -88.98970,
,,,35412.72209, -88.98970,
,,,35462.04343, -87.78970,
,,,35511.36477, -92.98970,
,,,35560.68611, -92.18970,
,,,35610.00745, -90.18970,
,,,35659.32879, -98.98970,
,,,35708.65013,-103.78970,
,,,35757.97147, -95.78970,
,,,35807.29281, -92.18970,
,,,35856.61415, -96.98970,
,,,35905.93549, -99.78970,
,,,35955.25683, -90.98970,
,,,36004.57817, -88.98970,
